fmc_imput2/my_ddr_to_vga/.Xil/Vivado-13428-DESKTOP-NM2AVR9/hw_ila_data_1/zip_work/waveform.vcd
$date
        2019-Sep-25 18:31:24
$end
$version
        Vivado v2018.3 (64-bit)
$end
$timescale
        1ps
$end
$scope module dut $end
$var reg 3 " ddr3_top/ddr3_FSM/current_state [2:0] $end
$var reg 21 % ddr3_top/ddr3_FSM/rd_burst_addr_counter [20:0] $end
$var reg 21 : ddr3_top/ddr3_FSM/wr_burst_addr_counter [20:0] $end
$var reg 21 O ddr3_top/ddr3_FSM/rd_burst_data_counter [20:0] $end
$var reg 256 d ddr3_top/app_rd_data [255:0] $end
$var reg 256 J$ ddr3_top/app_wdf_data [255:0] $end
$var reg 2 0' u_ila_0_app_addr [1:0] $end
$var reg 27 2' ddr3_top/app_addr [28:2] $end
$var reg 1 M' ddr3_top/app_cmd_1 $end
$var reg 2 N' ddr3_top/app_cmd [2:1] $end
$var reg 2 P' sd_read/u_sd_read_photo/rd_flow_cnt [1:0] $end
$var reg 17 R' sd_read/u_sd_read_photo/rd_sec_cnt [16:0] $end
$var reg 256 c' sd_read/data [255:0] $end
$var reg 16 I* sd_read/sd_rd_val_data [15:0] $end
$var reg 1 Y* ddr3_top/app_en $end
$var reg 1 Z* ddr3_top/app_rd_data_valid $end
$var reg 1 [* u_ila_0_app_rdy $end
$var reg 1 \* ddr3_top/app_wdf_rdy $end
$var reg 1 ]* ddr3_top/app_wdf_wren $end
$var reg 1 ^* ddr_fifo_b_full $end
$var reg 1 _* ddr_fifo_s_empty $end
$var reg 1 `* ddr_fifo_s_full $end
$var reg 1 a* sd_read/out_valid $end
$var reg 1 b* sd_fifo_empty $end
$var reg 1 c* sd_fifo_full $end
$var reg 1 d* sd_read/sd_rd_val_en $end
$var reg 1 e* ddr3_top/wr_burst_finish $end
$var reg 1 f* ddr3_top/wr_burst_req $end
$var reg 1 g* _TRIGGER $end
$var reg 1 h* _WINDOW $end
$var reg 1 i* _GAP $end
$upscope $end
$enddefinitions $end
#0
$dumpvars
b1 "
b1111111100111101 %
b0 :
b1111111100111101 O
b1111100000000000111110000000000011111000000000001111100000000000111110000000000011111000000000001111100000000000111110000000000011111000000000001111100000000000111110000000000011111000000000001111100000000000111110000000000011111000000000001111100000000 d
b1111100000000000111110000000000011111000000000001111100000000000111110000000000011111000000000001111100000000000111110000000000011111000000000001111100000000000111110000000000011111000000000001111100000000000111110000000000011111000000000001111100000000 J$
b0 0'
b11111111001111010 2'
1M'
b0 N'
b11 P'
b110 R'
b1111111111111111111111111111111111111111111111111111111111111111111111111111111111111111111111111111111111111111111111111111111111111111111111111111111111111111111111111111111111111111111111111111111111111111111111111111111111111111111111111111111111111111 c'
b1111111111111111 I*
0Y*
0Z*
1[*
1\*
0]*
1^*
0_*
0`*
0a*
0b*
0c*
0d*
0e*
0f*
0g*
1h*
0i*
$end
#12
0[*
#14
1[*
#212
0[*
#214
1[*
#248
0^*
#249
1_*
#250
1Y*
1^*
#251
b1111111100111110 %
b11111111001111100 2'
#252
b1111111100111111 %
b11111111001111110 2'
#253
b1111111101000000 %
b11111111010000000 2'
#254
b1111111101000001 %
b11111111010000010 2'
#255
b1111111101000010 %
b11111111010000100 2'
#256
b1111111101000011 %
b11111111010000110 2'
0Y*
0[*
#259
1Y*
1[*
#260
b1111111101000100 %
b11111111010001000 2'
#261
b1111111101000101 %
b11111111010001010 2'
#262
b1111111101000110 %
b11111111010001100 2'
#263
b1111111101000111 %
b11111111010001110 2'
#264
b1111111101001000 %
b11111111010010000 2'
#265
b1111111101001001 %
b11111111010010010 2'
#266
b1111111101001010 %
b11111111010010100 2'
#267
b1111111101001011 %
b11111111010010110 2'
#268
b1111111101001100 %
b11111111010011000 2'
#269
b1111111101001101 %
b11111111010011010 2'
0^*
#270
b1111111101001110 %
b11111111010011100 2'
#271
b1111111101001111 %
b11111111010011110 2'
#272
b1111111101010000 %
b11111111010100000 2'
#273
b1111111101010001 %
b11111111010100010 2'
#274
b1111111101010010 %
b11111111010100100 2'
#275
b1111111101010011 %
b11111111010100110 2'
#276
b1111111101010100 %
b11111111010101000 2'
#277
b1111111101010101 %
b11111111010101010 2'
#278
b1111111101010110 %
b11111111010101100 2'
1Z*
#279
b1111111101010111 %
b1111111100111110 O
b11111111010101110 2'
#280
b1111111101011000 %
b1111111100111111 O
b11111111010110000 2'
#281
b1111111101011001 %
b1111111101000000 O
b11111111010110010 2'
#282
b1111111101011010 %
b1111111101000001 O
b11111111010110100 2'
#283
b1111111101011011 %
b1111111101000010 O
b11111111010110110 2'
#284
b1111111101011100 %
b1111111101000011 O
b11111111010111000 2'
0_*
#285
b1111111101011101 %
b1111111101000100 O
b11111111010111010 2'
#286
b1111111101011110 %
b1111111101000101 O
b11111111010111100 2'
1^*
#287
b1111111101011111 %
b1111111101000110 O
b11111111010111110 2'
#288
b1111111101100000 %
b1111111101000111 O
b11111111011000000 2'
#289
b1111111101100001 %
b1111111101001000 O
b11111111011000010 2'
#290
b1111111101100010 %
b1111111101001001 O
b11111111011000100 2'
#291
b1111111101100011 %
b1111111101001010 O
b11111111011000110 2'
#292
b1111111101100100 %
b1111111101001011 O
b11111111011001000 2'
0^*
#293
b1111111101100101 %
b1111111101001100 O
b11111111011001010 2'
#294
b1111111101100110 %
b1111111101001101 O
b11111111011001100 2'
1^*
#295
b1111111101100111 %
b1111111101001110 O
b11111111011001110 2'
#296
b1111111101101000 %
b1111111101001111 O
b11111111011010000 2'
#297
b1111111101101001 %
b1111111101010000 O
b11111111011010010 2'
#298
b1111111101101010 %
b1111111101010001 O
b11111111011010100 2'
#299
b1111111101101011 %
b1111111101010010 O
b11111111011010110 2'
#300
b1111111101101100 %
b1111111101010011 O
b11111111011011000 2'
#301
b1111111101101101 %
b1111111101010100 O
b11111111011011010 2'
#302
b1111111101101110 %
b1111111101010101 O
b11111111011011100 2'
#303
b1111111101101111 %
b1111111101010110 O
b11111111011011110 2'
#304
b1111111101110000 %
b1111111101010111 O
b11111111011100000 2'
#305
b1111111101110001 %
b1111111101011000 O
b11111111011100010 2'
#306
b1111111101110010 %
b1111111101011001 O
b11111111011100100 2'
#307
b1111111101110011 %
b1111111101011010 O
b11111111011100110 2'
#308
b1111111101110100 %
b1111111101011011 O
b11111111011101000 2'
#309
b1111111101110101 %
b1111111101011100 O
b11111111011101010 2'
#310
b1111111101110110 %
b1111111101011101 O
b11111111011101100 2'
#311
b1111111101110111 %
b1111111101011110 O
b11111111011101110 2'
#312
b1111111101111000 %
b1111111101011111 O
b11111111011110000 2'
#313
b1111111101111001 %
b1111111101100000 O
b11111111011110010 2'
#314
b1111111101111010 %
b1111111101100001 O
b11111111011110100 2'
0^*
#315
b1111111101111011 %
b1111111101100010 O
b11111111011110110 2'
#316
b1111111101111100 %
b1111111101100011 O
b11111111011111000 2'
1^*
#317
b1111111101111101 %
b1111111101100100 O
b11111111011111010 2'
0Y*
#318
b1111111101100101 O
#319
b1111111101100110 O
#320
b1111111101100111 O
#321
b1111111101101000 O
#322
b1111111101101001 O
#323
b1111111101101010 O
#324
b1111111101101011 O
#325
b1111111101101100 O
#326
b1111111101101101 O
#327
b1111111101101110 O
#328
b1111111101101111 O
#329
b1111111101110000 O
#330
b1111111101110001 O
#331
b1111111101110010 O
#332
b1111111101110011 O
#333
b1111111101110100 O
#334
b1111111101110101 O
#335
b1111111101110110 O
#336
b1111111101110111 O
#337
b1111111101111000 O
0^*
#338
b1111111101111001 O
#339
b1111111101111010 O
1^*
#340
b1111111101111011 O
#341
b1111111101111100 O
#342
b1111111101111101 O
0Z*
#358
0^*
#360
1^*
#381
0^*
#383
1^*
#403
0^*
#405
1^*
#425
0^*
#427
1^*
#447
0^*
#449
1^*
#470
0^*
#472
1^*
#491
0^*
#492
0[*
#493
1^*
#494
1[*
#514
0^*
#516
1^*
#536
0^*
#538
1^*
#559
0^*
#561
1^*
#580
0^*
#582
1^*
#603
0^*
#605
1^*
#625
0^*
#627
1^*
#648
0^*
#650
1^*
#669
0^*
#671
1^*
#692
0[*
0^*
#694
1[*
1^*
#714
0^*
#716
1^*
#737
0^*
#739
1^*
#758
0^*
#760
1^*
#781
0^*
#783
1^*
#803
0^*
#805
1^*
#825
0^*
#827
1^*
#847
0^*
#849
1^*
#870
0^*
#872
1^*
#891
0^*
#892
0[*
#893
1^*
#894
1[*
#914
0^*
#916
1^*
#936
0^*
#938
1^*
#959
0^*
#961
1^*
1_*
#962
1Y*
#963
b1111111101111110 %
b11111111011111100 2'
#964
b1111111101111111 %
b11111111011111110 2'
#965
b1111111110000000 %
b11111111100000000 2'
#966
b1111111110000001 %
b11111111100000010 2'
#967
b1111111110000010 %
b11111111100000100 2'
#968
b1111111110000011 %
b11111111100000110 2'
0Y*
0[*
#971
1Y*
1[*
#972
b1111111110000100 %
b11111111100001000 2'
#973
b1111111110000101 %
b11111111100001010 2'
0Y*
0[*
#978
1Y*
1[*
#979
b1111111110000110 %
b11111111100001100 2'
0Y*
0[*
#980
0^*
#984
1Y*
1[*
#985
b1111111110000111 %
b11111111100001110 2'
#986
b1111111110001000 %
b11111111100010000 2'
#987
b1111111110001001 %
b11111111100010010 2'
#988
b1111111110001010 %
b11111111100010100 2'
#989
b1111111110001011 %
b11111111100010110 2'
#990
b1111111110001100 %
b11111111100011000 2'
1Z*
#991
b1111111110001101 %
b1111111101111110 O
b11111111100011010 2'
#992
b1111111110001110 %
b1111111101111111 O
b11111111100011100 2'
#993
b1111111110001111 %
b1111111110000000 O
b11111111100011110 2'
0Z*
#994
b1111111110010000 %
b11111111100100000 2'
#995
b1111111110010001 %
b11111111100100010 2'
#996
b1111111110010010 %
b11111111100100100 2'
0_*
#997
b1111111110010011 %
b11111111100100110 2'
#998
b1111111110010100 %
b11111111100101000 2'
1^*
#999
b1111111110010101 %
b11111111100101010 2'
#1000
b1111111110010110 %
b11111111100101100 2'
#1001
b1111111110010111 %
b11111111100101110 2'
#1002
b1111111110011000 %
b11111111100110000 2'
#1003
b1111111110011001 %
b11111111100110010 2'
1Z*
0^*
#1004
b1111111110011010 %
b1111111110000001 O
b11111111100110100 2'
1_*
#1005
b1111111110011011 %
b1111111110000010 O
b11111111100110110 2'
1^*
#1006
b1111111110011100 %
b1111111110000011 O
b11111111100111000 2'
#1007
b1111111110011101 %
b1111111110000100 O
b11111111100111010 2'
#1008
b1111111110011110 %
b1111111110000101 O
b11111111100111100 2'
#1009
b1111111110011111 %
b1111111110000110 O
b11111111100111110 2'
0_*
#1010
b1111111110100000 %
b1111111110000111 O
b11111111101000000 2'
#1011
b1111111110100001 %
b1111111110001000 O
b11111111101000010 2'
#1012
b1111111110100010 %
b1111111110001001 O
b11111111101000100 2'
#1013
b1111111110100011 %
b1111111110001010 O
b11111111101000110 2'
#1014
b1111111110100100 %
b1111111110001011 O
b11111111101001000 2'
#1015
b1111111110100101 %
b1111111110001100 O
b11111111101001010 2'
#1016
b1111111110100110 %
b1111111110001101 O
b11111111101001100 2'
#1017
b1111111110100111 %
b1111111110001110 O
b11111111101001110 2'
#1018
b1111111110101000 %
b1111111110001111 O
b11111111101010000 2'
#1019
b1111111110101001 %
b1111111110010000 O
b11111111101010010 2'
#1020
b1111111110101010 %
b1111111110010001 O
b11111111101010100 2'
#1021
b1111111110101011 %
b1111111110010010 O
b11111111101010110 2'
#1022
b1111111110101100 %
b1111111110010011 O
b11111111101011000 2'
#1023
b1111111110101101 %
b1111111110010100 O
b11111111101011010 2'
#1024
b1111111110101110 %
b1111111110010101 O
b11111111101011100 2'
#1025
b1111111110101111 %
b1111111110010110 O
b11111111101011110 2'
0^*
#1026
b1111111110110000 %
b1111111110010111 O
b11111111101100000 2'
#1027
b1111111110110001 %
b1111111110011000 O
b11111111101100010 2'
1^*
#1028
b1111111110110010 %
b1111111110011001 O
b11111111101100100 2'
#1029
b1111111110110011 %
b1111111110011010 O
b11111111101100110 2'
#1030
b1111111110110100 %
b1111111110011011 O
b11111111101101000 2'
#1031
b1111111110110101 %
b1111111110011100 O
b11111111101101010 2'
#1032
b1111111110110110 %
b1111111110011101 O
b11111111101101100 2'
#1033
b1111111110110111 %
b1111111110011110 O
b11111111101101110 2'
#1034
b1111111110111000 %
b1111111110011111 O
b11111111101110000 2'
#1035
b1111111110111001 %
b1111111110100000 O
b11111111101110010 2'
#1036
b1111111110111010 %
b1111111110100001 O
b11111111101110100 2'
#1037
b1111111110111011 %
b1111111110100010 O
b11111111101110110 2'
#1038
b1111111110111100 %
b1111111110100011 O
b11111111101111000 2'
#1039
b1111111110111101 %
b1111111110100100 O
b11111111101111010 2'
0Y*
#1040
b1111111110100101 O
#1041
b1111111110100110 O
#1042
b1111111110100111 O
#1043
b1111111110101000 O
#1044
b1111111110101001 O
#1045
b1111111110101010 O
#1046
b1111111110101011 O
#1047
b1111111110101100 O
#1048
b1111111110101101 O
0^*
#1049
b1111111110101110 O
#1050
b1111111110101111 O
1^*
#1051
b1111111110110000 O
#1052
b1111111110110001 O
#1053
b1111111110110010 O
#1054
b1111111110110011 O
#1055
b1111111110110100 O
#1056
b1111111110110101 O
#1057
b1111111110110110 O
#1058
b1111111110110111 O
#1059
b1111111110111000 O
#1060
b1111111110111001 O
#1061
b1111111110111010 O
#1062
b1111111110111011 O
#1063
b1111111110111100 O
#1064
b1111111110111101 O
0Z*
#1069
0^*
#1071
1^*
#1092
0^*
#1094
1^*
#1114
0^*
#1116
1^*
#1137
0^*
#1139
1^*
#1158
0^*
#1160
1^*
#1181
0^*
#1183
1^*
#1203
0^*
#1205
1^*
#1212
0[*
#1214
1[*
#1226
0^*
#1228
1^*
#1247
0^*
#1249
1^*
#1270
0^*
#1272
1^*
#1292
0^*
#1294
1^*
#1314
0^*
#1316
1^*
#1336
0^*
#1338
1^*
#1359
0^*
#1361
1^*
#1380
0^*
#1382
1^*
#1403
0^*
#1405
1^*
#1412
0[*
#1414
1[*
#1425
0^*
#1427
1^*
#1448
0^*
#1450
1^*
#1469
0^*
#1471
1^*
#1492
0^*
#1494
1^*
#1514
0^*
#1516
1^*
#1537
0^*
#1539
1^*
#1558
0^*
#1560
1^*
#1581
0^*
#1583
1^*
#1603
0^*
#1605
1^*
#1612
0[*
#1614
1[*
#1626
0^*
#1628
1^*
#1812
0[*
#1814
1[*
#2012
0[*
#2014
1[*
#2212
0[*
#2214
1[*
#2412
0[*
#2414
1[*
#2612
0[*
#2614
1[*
#2812
0[*
#2814
1[*
#3012
0[*
#3014
1[*
#3211
0^*
#3212
0[*
#3213
1^*
#3214
1[*
#3232
0^*
#3234
1^*
#3255
0^*
#3256
1_*
#3257
1Y*
1^*
#3258
b1111111110111110 %
b11111111101111100 2'
#3259
b1111111110111111 %
b11111111101111110 2'
#3260
b1111111111000000 %
b11111111110000000 2'
#3261
b1111111111000001 %
b11111111110000010 2'
#3262
b1111111111000010 %
b11111111110000100 2'
#3263
b1111111111000011 %
b11111111110000110 2'
0Y*
0[*
#3266
1Y*
1[*
#3267
b1111111111000100 %
b11111111110001000 2'
#3268
b1111111111000101 %
b11111111110001010 2'
#3269
b1111111111000110 %
b11111111110001100 2'
#3270
b1111111111000111 %
b11111111110001110 2'
#3271
b1111111111001000 %
b11111111110010000 2'
#3272
b1111111111001001 %
b11111111110010010 2'
#3273
b1111111111001010 %
b11111111110010100 2'
#3274
b1111111111001011 %
b11111111110010110 2'
#3275
b1111111111001100 %
b11111111110011000 2'
#3276
b1111111111001101 %
b11111111110011010 2'
#3277
b1111111111001110 %
b11111111110011100 2'
0^*
#3278
b1111111111001111 %
b11111111110011110 2'
#3279
b1111111111010000 %
b11111111110100000 2'
#3280
b1111111111010001 %
b11111111110100010 2'
#3281
b1111111111010010 %
b11111111110100100 2'
#3282
b1111111111010011 %
b11111111110100110 2'
#3283
b1111111111010100 %
b11111111110101000 2'
#3284
b1111111111010101 %
b11111111110101010 2'
#3285
b1111111111010110 %
b11111111110101100 2'
1Z*
#3286
b1111111111010111 %
b1111111110111110 O
b11111111110101110 2'
#3287
b1111111111011000 %
b1111111110111111 O
b11111111110110000 2'
#3288
b1111111111011001 %
b1111111111000000 O
b11111111110110010 2'
#3289
b1111111111011010 %
b1111111111000001 O
b11111111110110100 2'
#3290
b1111111111011011 %
b1111111111000010 O
b11111111110110110 2'
#3291
b1111111111011100 %
b1111111111000011 O
b11111111110111000 2'
0_*
#3292
b1111111111011101 %
b1111111111000100 O
b11111111110111010 2'
#3293
b1111111111011110 %
b1111111111000101 O
b11111111110111100 2'
1^*
#3294
b1111111111011111 %
b1111111111000110 O
b11111111110111110 2'
#3295
b1111111111100000 %
b1111111111000111 O
b11111111111000000 2'
#3296
b1111111111100001 %
b1111111111001000 O
b11111111111000010 2'
#3297
b1111111111100010 %
b1111111111001001 O
b11111111111000100 2'
#3298
b1111111111100011 %
b1111111111001010 O
b11111111111000110 2'
#3299
b1111111111100100 %
b1111111111001011 O
b11111111111001000 2'
#3300
b1111111111100101 %
b1111111111001100 O
b11111111111001010 2'
0^*
#3301
b1111111111100110 %
b1111111111001101 O
b11111111111001100 2'
#3302
b1111111111100111 %
b1111111111001110 O
b11111111111001110 2'
1^*
#3303
b1111111111101000 %
b1111111111001111 O
b11111111111010000 2'
#3304
b1111111111101001 %
b1111111111010000 O
b11111111111010010 2'
#3305
b1111111111101010 %
b1111111111010001 O
b11111111111010100 2'
#3306
b1111111111101011 %
b1111111111010010 O
b11111111111010110 2'
#3307
b1111111111101100 %
b1111111111010011 O
b11111111111011000 2'
#3308
b1111111111101101 %
b1111111111010100 O
b11111111111011010 2'
#3309
b1111111111101110 %
b1111111111010101 O
b11111111111011100 2'
#3310
b1111111111101111 %
b1111111111010110 O
b11111111111011110 2'
#3311
b1111111111110000 %
b1111111111010111 O
b11111111111100000 2'
#3312
b1111111111110001 %
b1111111111011000 O
b11111111111100010 2'
#3313
b1111111111110010 %
b1111111111011001 O
b11111111111100100 2'
#3314
b1111111111110011 %
b1111111111011010 O
b11111111111100110 2'
#3315
b1111111111110100 %
b1111111111011011 O
b11111111111101000 2'
#3316
b1111111111110101 %
b1111111111011100 O
b11111111111101010 2'
#3317
b1111111111110110 %
b1111111111011101 O
b11111111111101100 2'
#3318
b1111111111110111 %
b1111111111011110 O
b11111111111101110 2'
#3319
b1111111111111000 %
b1111111111011111 O
b11111111111110000 2'
#3320
b1111111111111001 %
b1111111111100000 O
b11111111111110010 2'
#3321
b1111111111111010 %
b1111111111100001 O
b11111111111110100 2'
0^*
#3322
b1111111111111011 %
b1111111111100010 O
b11111111111110110 2'
#3323
b1111111111111100 %
b1111111111100011 O
b11111111111111000 2'
1^*
#3324
b1111111111111101 %
b1111111111100100 O
b11111111111111010 2'
0Y*
#3325
b1111111111100101 O
#3326
b1111111111100110 O
#3327
b1111111111100111 O
#3328
b1111111111101000 O
#3329
b1111111111101001 O
#3330
b1111111111101010 O
#3331
b1111111111101011 O
#3332
b1111111111101100 O
#3333
b1111111111101101 O
#3334
b1111111111101110 O
#3335
b1111111111101111 O
#3336
b1111111111110000 O
#3337
b1111111111110001 O
#3338
b1111111111110010 O
#3339
b1111111111110011 O
#3340
b1111111111110100 O
#3341
b1111111111110101 O
#3342
b1111111111110110 O
#3343
b1111111111110111 O
#3344
b1111111111111000 O
0^*
#3345
b1111111111111001 O
#3346
b1111111111111010 O
1^*
#3347
b1111111111111011 O
#3348
b1111111111111100 O
#3349
b1111111111111101 O
0Z*
#3366
0^*
#3368
1^*
#3389
0^*
#3391
1^*
#3410
0^*
#3412
1^*
#3433
0^*
#3435
1^*
#3455
0^*
#3457
1^*
#3477
0^*
#3479
1^*
#3499
0^*
#3501
1^*
#3522
0^*
#3524
1^*
#3532
0[*
#3534
1[*
#3543
0^*
#3545
1^*
#3566
0^*
#3568
1^*
#3588
0^*
#3590
1^*
#3611
0^*
#3613
1^*
#3632
0^*
#3634
1^*
#3655
0^*
#3657
1^*
#3677
0^*
#3679
1^*
#3700
0^*
#3702
1^*
#3721
0^*
#3723
1^*
#3732
0[*
#3734
1[*
#3744
0^*
#3746
1^*
#3766
0^*
#3768
1^*
#3789
0^*
#3791
1^*
#3810
0^*
#3812
1^*
#3833
0^*
#3835
1^*
#3855
0^*
#3857
1^*
#3877
0^*
#3879
1^*
#3899
0^*
#3901
1^*
#3922
0^*
#3924
1^*
#3932
0[*
#3934
1[*
#3943
0^*
#3945
1^*
#3966
0^*
#3968
1^*
1_*
#3969
1Y*
#3970
b1111111111111110 %
b11111111111111100 2'
#3971
b1111111111111111 %
b11111111111111110 2'
#3972
b10 "
b0 %
b100000000000000000 2'
0Y*
#3973
b0 2'
#3988
0^*
#3997
1Z*
#3998
b1111111111111110 O
#3999
b1111111111111111 O
#4000
b11 "
b0 O
0Z*
1g*
#4001
b0 "
#4002
b1 "
#4003
1Y*
0_*
#4004
b1 %
b10 2'
#4005
b10 %
b100 2'
1^*
#4006
b11 %
b110 2'
#4007
b100 %
b1000 2'
#4008
b101 %
b1010 2'
#4009
b110 %
b1100 2'
0Y*
0[*
#4011
0^*
#4012
1Y*
1[*
1_*
#4013
b111 %
b1110 2'
1^*
#4014
b1000 %
b10000 2'
#4015
b1001 %
b10010 2'
#4016
b1010 %
b10100 2'
#4017
b1011 %
b10110 2'
#4018
b1100 %
b11000 2'
#4019
b1101 %
b11010 2'
#4020
b1110 %
b11100 2'
#4021
b1111 %
b11110 2'
#4022
b10000 %
b100000 2'
#4023
b10001 %
b100010 2'
#4024
b10010 %
b100100 2'
#4025
b10011 %
b100110 2'
#4026
b10100 %
b101000 2'
#4027
b10101 %
b101010 2'
#4028
b10110 %
b101100 2'
#4029
b10111 %
b101110 2'
#4030
b11000 %
b110000 2'
#4031
b11001 %
b1111111111111111111111111111111111111111111111111111111111111111111111111111111111111111111111111111111111111111111111111111111111111111111111111111111111111111111111111111111111111111111111111111111111111111111111111111111111111111111111111111111111111111 d
b110010 2'
1Z*
#4032
b11010 %
b1 O
b110100 2'
0^*
#4033
b11011 %
b10 O
b110110 2'
#4034
b11100 %
b11 O
b111000 2'
#4035
b11101 %
b100 O
b111010 2'
#4036
b11110 %
b101 O
b111100 2'
#4037
b11111 %
b110 O
b111110 2'
0_*
#4038
b100000 %
b111 O
b1000000 2'
#4039
b100001 %
b1000 O
b1000010 2'
1^*
#4040
b100010 %
b1001 O
b1000100 2'
#4041
b100011 %
b1010 O
b1000110 2'
#4042
b100100 %
b1011 O
b1001000 2'
#4043
b100101 %
b1100 O
b1001010 2'
#4044
b100110 %
b1101 O
b1001100 2'
#4045
b100111 %
b1110 O
b1001110 2'
#4046
b101000 %
b1111 O
b1010000 2'
#4047
b101001 %
b10000 O
b1010010 2'
#4048
b101010 %
b10001 O
b1010100 2'
#4049
b101011 %
b10010 O
b1010110 2'
#4050
b101100 %
b10011 O
b1011000 2'
#4051
b101101 %
b10100 O
b1011010 2'
#4052
b101110 %
b10101 O
b1011100 2'
#4053
b101111 %
b10110 O
b1011110 2'
#4054
b110000 %
b10111 O
b1100000 2'
#4055
b110001 %
b11000 O
b1100010 2'
0^*
#4056
b110010 %
b11001 O
b1100100 2'
#4057
b110011 %
b11010 O
b1100110 2'
1^*
#4058
b110100 %
b11011 O
b1101000 2'
#4059
b110101 %
b11100 O
b1101010 2'
#4060
b110110 %
b11101 O
b1101100 2'
#4061
b110111 %
b11110 O
b1101110 2'
#4062
b111000 %
b11111 O
b1110000 2'
#4063
b111001 %
b100000 O
b1110010 2'
#4064
b111010 %
b100001 O
b1110100 2'
#4065
b111011 %
b100010 O
b1110110 2'
#4066
b111100 %
b100011 O
b1111000 2'
#4067
b111101 %
b100100 O
b1111010 2'
0Y*
#4068
b100101 O
#4069
b100110 O
#4070
b100111 O
#4071
b101000 O
#4072
b101001 O
#4073
b101010 O
#4074
b101011 O
#4075
b101100 O
#4076
b101101 O
#4077
b101110 O
0^*
#4078
b101111 O
#4079
b110000 O
1^*
#4080
b110001 O
#4081
b110010 O
#4082
b110011 O
#4083
b110100 O
#4084
b110101 O
#4085
b110110 O
#4086
b110111 O
#4087
b111000 O
#4088
b111001 O
#4089
b111010 O
#4090
b111011 O
#4091
b111100 O
#4092
b111101 O
0Z*
#4100
0^*
#4102
1^*
#4121
0^*
#4123
1^*
#4144
0^*
#4146
1^*
#4166
0^*
#4168
1^*
#4189
0^*
#4191
1^*
#4210
0^*
#4212
1^*
#4233
0^*
#4235
1^*
#4252
0[*
#4254
1[*
#4255
0^*
#4257
1^*
#4277
0^*
#4279
1^*
#4299
0^*
#4301
1^*
#4322
0^*
#4324
1^*
#4343
0^*
#4345
1^*
#4366
0^*
#4368
1^*
#4388
0^*
#4390
1^*
#4411
0^*
#4413
1^*
#4432
0^*
#4434
1^*
#4452
0[*
#4454
1[*
#4455
0^*
#4457
1^*
#4477
0^*
#4479
1^*
#4500
0^*
#4502
1^*
#4521
0^*
#4523
1^*
#4544
0^*
#4546
1^*
#4566
0^*
#4568
1^*
#4589
0^*
#4591
1^*
#4652
0[*
#4654
1[*
#4852
0[*
#4854
1[*
#5052
0[*
#5054
1[*
#5252
0[*
#5254
1[*
#5452
0[*
#5454
1[*
#5652
0[*
#5654
1[*
#5852
0[*
#5854
1[*
#6052
0[*
#6054
1[*
#6174
0^*
#6176
1^*
#6195
0^*
#6197
1^*
#6218
0^*
#6220
1^*
#6240
0^*
#6242
1^*
#6252
0[*
#6254
1[*
#6263
0^*
#6264
1_*
#6265
1Y*
1^*
#6266
b111110 %
b1111100 2'
#6267
b111111 %
b1111110 2'
#6268
b1000000 %
b10000000 2'
#6269
b1000001 %
b10000010 2'
#6270
b1000010 %
b10000100 2'
#6271
b1000011 %
b10000110 2'
0Y*
0[*
#6274
1Y*
1[*
#6275
b1000100 %
b10001000 2'
#6276
b1000101 %
b10001010 2'
#6277
b1000110 %
b10001100 2'
#6278
b1000111 %
b10001110 2'
#6279
b1001000 %
b10010000 2'
#6280
b1001001 %
b10010010 2'
#6281
b1001010 %
b10010100 2'
#6282
b1001011 %
b10010110 2'
#6283
b1001100 %
b10011000 2'
#6284
b1001101 %
b10011010 2'
0^*
#6285
b1001110 %
b10011100 2'
#6286
b1001111 %
b10011110 2'
#6287
b1010000 %
b10100000 2'
#6288
b1010001 %
b10100010 2'
#6289
b1010010 %
b10100100 2'
#6290
b1010011 %
b10100110 2'
#6291
b1010100 %
b10101000 2'
#6292
b1010101 %
b10101010 2'
#6293
b1010110 %
b10101100 2'
1Z*
#6294
b1010111 %
b111110 O
b10101110 2'
#6295
b1011000 %
b111111 O
b10110000 2'
#6296
b1011001 %
b1000000 O
b10110010 2'
#6297
b1011010 %
b1000001 O
b10110100 2'
#6298
b1011011 %
b1000010 O
b10110110 2'
#6299
b1011100 %
b1000011 O
b10111000 2'
0_*
#6300
b1011101 %
b1000100 O
b10111010 2'
#6301
b1011110 %
b1000101 O
b10111100 2'
1^*
#6302
b1011111 %
b1000110 O
b10111110 2'
#6303
b1100000 %
b1000111 O
b11000000 2'
#6304
b1100001 %
b1001000 O
b11000010 2'
#6305
b1100010 %
b1001001 O
b11000100 2'
#6306
b1100011 %
b1001010 O
b11000110 2'
#6307
b1100100 %
b1001011 O
b11001000 2'
0^*
#6308
b1100101 %
b1001100 O
b11001010 2'
#6309
b1100110 %
b1001101 O
b11001100 2'
1^*
#6310
b1100111 %
b1001110 O
b11001110 2'
#6311
b1101000 %
b1001111 O
b11010000 2'
#6312
b1101001 %
b1010000 O
b11010010 2'
#6313
b1101010 %
b1010001 O
b11010100 2'
#6314
b1101011 %
b1010010 O
b11010110 2'
#6315
b1101100 %
b1010011 O
b11011000 2'
#6316
b1101101 %
b1010100 O
b11011010 2'
#6317
b1101110 %
b1010101 O
b11011100 2'
#6318
b1101111 %
b1010110 O
b11011110 2'
#6319
b1110000 %
b1010111 O
b11100000 2'
#6320
b1110001 %
b1011000 O
b11100010 2'
#6321
b1110010 %
b1011001 O
b11100100 2'
#6322
b1110011 %
b1011010 O
b11100110 2'
#6323
b1110100 %
b1011011 O
b11101000 2'
#6324
b1110101 %
b1011100 O
b11101010 2'
#6325
b1110110 %
b1011101 O
b11101100 2'
#6326
b1110111 %
b1011110 O
b11101110 2'
#6327
b1111000 %
b1011111 O
b11110000 2'
#6328
b1111001 %
b1100000 O
b11110010 2'
#6329
b1111010 %
b1100001 O
b11110100 2'
0^*
#6330
b1111011 %
b1100010 O
b11110110 2'
#6331
b1111100 %
b1100011 O
b11111000 2'
1^*
#6332
b1111101 %
b1100100 O
b11111010 2'
0Y*
#6333
b1100101 O
#6334
b1100110 O
#6335
b1100111 O
#6336
b1101000 O
#6337
b1101001 O
#6338
b1101010 O
#6339
b1101011 O
#6340
b1101100 O
#6341
b1101101 O
#6342
b1101110 O
#6343
b1101111 O
#6344
b1110000 O
#6345
b1110001 O
#6346
b1110010 O
#6347
b1110011 O
#6348
b1110100 O
#6349
b1110101 O
#6350
b1110110 O
#6351
b1110111 O
#6352
b1111000 O
0^*
#6353
b1111001 O
#6354
b1111010 O
1^*
#6355
b1111011 O
#6356
b1111100 O
#6357
b1111101 O
0Z*
#6373
0^*
#6375
1^*
#6396
0^*
#6398
1^*
#6418
0^*
#6420
1^*
#6441
0^*
#6443
1^*
#6462
0^*
#6464
1^*
#6485
0^*
#6487
1^*
#6507
0^*
#6509
1^*
#6529
0^*
#6531
1^*
#6532
0[*
#6534
1[*
#6551
0^*
#6553
1^*
#6574
0^*
#6576
1^*
#6595
0^*
#6597
1^*
#6618
0^*
#6620
1^*
#6640
0^*
#6642
1^*
#6663
0^*
#6665
1^*
#6684
0^*
#6686
1^*
#6707
0^*
#6709
1^*
#6729
0^*
#6731
1^*
#6752
0^*
#6754
1^*
#6772
0[*
#6773
0^*
#6774
1[*
#6775
1^*
#6796
0^*
