fmc_imput2/my_ddr_to_vga/.Xil/Vivado-460-DESKTOP-NM2AVR9/hw_ila_data_1/zip_work/waveform.vcd
$date
        2019-Sep-22 13:40:15
$end
$version
        Vivado v2018.3 (64-bit)
$end
$timescale
        1ps
$end
$scope module dut $end
$var reg 21 " ddr3_top/ddr3_FSM/wr_burst_addr_counter [20:0] $end
$var reg 21 7 ddr3_top/ddr3_FSM/rd_burst_data_counter [20:0] $end
$var reg 21 L ddr3_top/ddr3_FSM/rd_burst_addr_counter [20:0] $end
$var reg 3 a ddr3_top/ddr3_FSM/current_state [2:0] $end
$var reg 1 d sd_fifo_empty $end
$var reg 1 e ddr3_top/wr_burst_req $end
$var reg 1 f _TRIGGER $end
$var reg 1 g _WINDOW $end
$var reg 1 h _GAP $end
$upscope $end
$enddefinitions $end
#0
$dumpvars
b0 "
b10000011111001 7
b10000011111001 L
b1 a
0d
0e
0f
1g
0h
$end
#100
1f
#769
b10000011111010 L
#770
b10000011111011 L
#771
b10000011111100 L
#772
b10000011111101 L
#774
b10000011111110 L
#775
b10000011111111 L
#776
b10000100000000 L
#777
b10000100000001 L
#778
b10000100000010 L
#779
b10000100000011 L
#780
b10000100000100 L
#781
b10000100000101 L
#787
b10000100000110 L
#793
b10000100000111 L
#794
b10000100001000 L
#795
b10000011111010 7
b10000100001001 L
#796
b10000011111011 7
b10000100001010 L
#797
b10000011111100 7
b10000100001011 L
#798
b10000011111101 7
b10000100001100 L
#799
b10000011111110 7
b10000100001101 L
#800
b10000011111111 7
b10000100001110 L
#801
b10000100000000 7
b10000100001111 L
#802
b10000100010000 L
#803
b10000100010001 L
#804
b10000100010010 L
#805
b10000100010011 L
#806
b10000100010100 L
#807
b10000100010101 L
#808
b10000100010110 L
#809
b10000100010111 L
#810
b10000100011000 L
#811
b10000100011001 L
#812
b10000100000001 7
b10000100011010 L
#813
b10000100000010 7
b10000100011011 L
#814
b10000100000011 7
b10000100011100 L
#815
b10000100000100 7
b10000100011101 L
#816
b10000100000101 7
b10000100011110 L
#817
b10000100000110 7
b10000100011111 L
#818
b10000100000111 7
b10000100100000 L
#819
b10000100001000 7
b10000100100001 L
#820
b10000100001001 7
b10000100100010 L
#821
b10000100001010 7
b10000100100011 L
#822
b10000100001011 7
b10000100100100 L
#823
b10000100001100 7
b10000100100101 L
#824
b10000100001101 7
b10000100100110 L
#825
b10000100001110 7
b10000100100111 L
#826
b10000100001111 7
b10000100101000 L
#827
b10000100010000 7
b10000100101001 L
#828
b10000100010001 7
b10000100101010 L
#829
b10000100010010 7
b10000100101011 L
#830
b10000100010011 7
b10000100101100 L
#831
b10000100010100 7
b10000100101101 L
#832
b10000100010101 7
b10000100101110 L
#833
b10000100010110 7
b10000100101111 L
#834
b10000100010111 7
b10000100110000 L
#835
b10000100011000 7
b10000100110001 L
#836
b10000100011001 7
b10000100110010 L
#837
b10000100011010 7
b10000100110011 L
#838
b10000100011011 7
b10000100110100 L
#839
b10000100011100 7
b10000100110101 L
#840
b10000100011101 7
b10000100110110 L
#841
b10000100011110 7
b10000100110111 L
#842
b10000100011111 7
b10000100111000 L
#843
b10000100100000 7
b10000100111001 L
#844
b10000100100001 7
#845
b10000100100010 7
#846
b10000100100011 7
#847
b10000100100100 7
#848
b10000100100101 7
#849
b10000100100110 7
#850
b10000100100111 7
#851
b10000100101000 7
#852
b10000100101001 7
#853
b10000100101010 7
#854
b10000100101011 7
#855
b10000100101100 7
#856
b10000100101101 7
#857
b10000100101110 7
#858
b10000100101111 7
#859
b10000100110000 7
#860
b10000100110001 7
#861
b10000100110010 7
#862
b10000100110011 7
#863
b10000100110100 7
#864
b10000100110101 7
#865
b10000100110110 7
#866
b10000100110111 7
#867
b10000100111000 7
#868
b10000100111001 7
#1458
b10000100111010 L
#1459
b10000100111011 L
#1460
b10000100111100 L
#1461
b10000100111101 L
#1462
b10000100111110 L
#1463
b10000100111111 L
#1467
b10000101000000 L
#1468
b10000101000001 L
#1469
b10000101000010 L
#1470
b10000101000011 L
#1471
b10000101000100 L
#1472
b10000101000101 L
#1473
b10000101000110 L
#1474
b10000101000111 L
#1475
b10000101001000 L
#1476
b10000101001001 L
#1477
b10000101001010 L
#1478
b10000101001011 L
#1479
b10000101001100 L
#1480
b10000101001101 L
#1481
b10000101001110 L
#1482
b10000101001111 L
#1483
b10000101010000 L
#1484
b10000101010001 L
#1485
b10000101010010 L
#1486
b10000100111010 7
b10000101010011 L
#1487
b10000100111011 7
b10000101010100 L
#1488
b10000100111100 7
b10000101010101 L
#1489
b10000100111101 7
b10000101010110 L
#1490
b10000100111110 7
b10000101010111 L
#1491
b10000100111111 7
b10000101011000 L
#1492
b10000101000000 7
b10000101011001 L
#1493
b10000101000001 7
b10000101011010 L
#1494
b10000101000010 7
b10000101011011 L
#1495
b10000101000011 7
b10000101011100 L
#1496
b10000101000100 7
b10000101011101 L
#1497
b10000101000101 7
b10000101011110 L
#1498
b10000101000110 7
b10000101011111 L
#1499
b10000101000111 7
b10000101100000 L
#1500
b10000101001000 7
b10000101100001 L
#1501
b10000101001001 7
b10000101100010 L
#1502
b10000101001010 7
b10000101100011 L
#1503
b10000101001011 7
b10000101100100 L
#1504
b10000101001100 7
b10000101100101 L
#1505
b10000101001101 7
b10000101100110 L
#1506
b10000101001110 7
b10000101100111 L
#1507
b10000101001111 7
b10000101101000 L
#1508
b10000101010000 7
b10000101101001 L
#1509
b10000101010001 7
b10000101101010 L
#1510
b10000101010010 7
b10000101101011 L
#1511
b10000101010011 7
b10000101101100 L
#1512
b10000101010100 7
b10000101101101 L
#1513
b10000101010101 7
b10000101101110 L
#1514
b10000101010110 7
b10000101101111 L
#1515
b10000101010111 7
b10000101110000 L
#1516
b10000101011000 7
b10000101110001 L
#1517
b10000101011001 7
b10000101110010 L
#1518
b10000101011010 7
b10000101110011 L
#1519
b10000101011011 7
b10000101110100 L
#1520
b10000101011100 7
b10000101110101 L
#1521
b10000101011101 7
b10000101110110 L
#1522
b10000101011110 7
b10000101110111 L
#1523
b10000101011111 7
b10000101111000 L
#1524
b10000101100000 7
b10000101111001 L
#1525
b10000101100001 7
#1526
b10000101100010 7
#1527
b10000101100011 7
#1528
b10000101100100 7
#1529
b10000101100101 7
#1530
b10000101100110 7
#1531
b10000101100111 7
#1532
b10000101101000 7
#1533
b10000101101001 7
#1534
b10000101101010 7
#1535
b10000101101011 7
#1536
b10000101101100 7
#1537
b10000101101101 7
#1538
b10000101101110 7
#1539
b10000101101111 7
#1540
b10000101110000 7
#1541
b10000101110001 7
#1542
b10000101110010 7
#1543
b10000101110011 7
#1544
b10000101110100 7
#1545
b10000101110101 7
#1546
b10000101110110 7
#1547
b10000101110111 7
#1548
b10000101111000 7
#1549
b10000101111001 7
#3731
b10000101111010 L
#3732
b10000101111011 L
#3733
b10000101111100 L
#3734
b10000101111101 L
#3746
b10000101111110 L
#3747
b10000101111111 L
#3748
b10000110000000 L
#3749
b10000110000001 L
#3750
b10000110000010 L
#3751
b10000110000011 L
#3752
b10000110000100 L
#3753
b10000110000101 L
#3759
b10000110000110 L
#3765
b10000110000111 L
#3766
b10000110001000 L
#3767
b10000101111010 7
b10000110001001 L
#3768
b10000101111011 7
b10000110001010 L
#3769
b10000101111100 7
b10000110001011 L
#3770
b10000101111101 7
b10000110001100 L
#3771
b10000101111110 7
b10000110001101 L
#3772
b10000101111111 7
b10000110001110 L
#3773
b10000110000000 7
b10000110001111 L
#3774
b10000110010000 L
#3775
b10000110010001 L
#3776
b10000110010010 L
#3777
b10000110010011 L
#3778
b10000110010100 L
#3779
b10000110010101 L
#3780
b10000110010110 L
#3781
b10000110010111 L
#3782
b10000110011000 L
#3783
b10000110011001 L
#3784
b10000110000001 7
b10000110011010 L
#3785
b10000110000010 7
b10000110011011 L
#3786
b10000110000011 7
b10000110011100 L
#3787
b10000110000100 7
b10000110011101 L
#3788
b10000110000101 7
b10000110011110 L
#3789
b10000110000110 7
b10000110011111 L
#3790
b10000110000111 7
b10000110100000 L
#3791
b10000110001000 7
b10000110100001 L
#3792
b10000110001001 7
b10000110100010 L
#3793
b10000110001010 7
b10000110100011 L
#3794
b10000110001011 7
b10000110100100 L
#3795
b10000110001100 7
b10000110100101 L
#3796
b10000110001101 7
b10000110100110 L
#3797
b10000110001110 7
b10000110100111 L
#3798
b10000110001111 7
b10000110101000 L
#3799
b10000110010000 7
b10000110101001 L
#3800
b10000110010001 7
b10000110101010 L
#3801
b10000110010010 7
b10000110101011 L
#3802
b10000110010011 7
b10000110101100 L
#3803
b10000110010100 7
b10000110101101 L
#3804
b10000110010101 7
b10000110101110 L
#3805
b10000110010110 7
b10000110101111 L
#3806
b10000110010111 7
b10000110110000 L
#3807
b10000110011000 7
b10000110110001 L
#3808
b10000110011001 7
b10000110110010 L
#3809
b10000110011010 7
b10000110110011 L
#3810
b10000110011011 7
b10000110110100 L
#3811
b10000110011100 7
b10000110110101 L
#3812
b10000110011101 7
b10000110110110 L
#3813
b10000110011110 7
b10000110110111 L
#3814
b10000110011111 7
b10000110111000 L
#3815
b10000110100000 7
b10000110111001 L
#3816
b10000110100001 7
#3817
b10000110100010 7
#3818
b10000110100011 7
#3819
b10000110100100 7
#3820
b10000110100101 7
#3821
b10000110100110 7
#3822
b10000110100111 7
#3823
b10000110101000 7
#3824
b10000110101001 7
#3825
b10000110101010 7
#3826
b10000110101011 7
#3827
b10000110101100 7
#3828
b10000110101101 7
#3829
b10000110101110 7
#3830
b10000110101111 7
#3831
b10000110110000 7
#3832
b10000110110001 7
#3833
b10000110110010 7
#3834
b10000110110011 7
#3835
b10000110110100 7
#3836
b10000110110101 7
#3837
b10000110110110 7
#3838
b10000110110111 7
#3839
b10000110111000 7
#3840
b10000110111001 7
#6025
b10000110111010 L
#6026
b10000110111011 L
#6027
b10000110111100 L
#6028
b10000110111101 L
#6029
b10000110111110 L
#6030
b10000110111111 L
#6034
b10000111000000 L
#6035
b10000111000001 L
#6036
b10000111000010 L
#6037
b10000111000011 L
#6038
b10000111000100 L
#6039
b10000111000101 L
#6040
b10000111000110 L
#6041
b10000111000111 L
#6042
b10000111001000 L
#6043
b10000111001001 L
#6044
b10000111001010 L
#6045
b10000111001011 L
#6046
b10000111001100 L
#6047
b10000111001101 L
#6048
b10000111001110 L
#6049
b10000111001111 L
#6050
b10000111010000 L
#6051
b10000111010001 L
#6052
b10000111010010 L
#6053
b10000110111010 7
b10000111010011 L
#6054
b10000110111011 7
b10000111010100 L
#6055
b10000110111100 7
b10000111010101 L
#6056
b10000110111101 7
b10000111010110 L
#6057
b10000110111110 7
b10000111010111 L
#6058
b10000110111111 7
b10000111011000 L
#6059
b10000111000000 7
b10000111011001 L
#6060
b10000111000001 7
b10000111011010 L
#6061
b10000111000010 7
b10000111011011 L
#6062
b10000111000011 7
b10000111011100 L
#6063
b10000111000100 7
b10000111011101 L
#6064
b10000111000101 7
b10000111011110 L
#6065
b10000111000110 7
b10000111011111 L
#6066
b10000111000111 7
b10000111100000 L
#6067
b10000111001000 7
b10000111100001 L
#6068
b10000111001001 7
b10000111100010 L
#6069
b10000111001010 7
b10000111100011 L
#6070
b10000111001011 7
b10000111100100 L
#6071
b10000111001100 7
b10000111100101 L
#6072
b10000111001101 7
b10000111100110 L
#6073
b10000111001110 7
b10000111100111 L
#6074
b10000111001111 7
b10000111101000 L
#6075
b10000111010000 7
b10000111101001 L
#6076
b10000111010001 7
b10000111101010 L
#6077
b10000111010010 7
b10000111101011 L
#6078
b10000111010011 7
b10000111101100 L
#6079
b10000111010100 7
b10000111101101 L
#6080
b10000111010101 7
b10000111101110 L
#6081
b10000111010110 7
b10000111101111 L
#6082
b10000111010111 7
b10000111110000 L
#6083
b10000111011000 7
b10000111110001 L
#6084
b10000111011001 7
b10000111110010 L
#6085
b10000111011010 7
b10000111110011 L
#6086
b10000111011011 7
b10000111110100 L
#6087
b10000111011100 7
b10000111110101 L
#6088
b10000111011101 7
b10000111110110 L
#6089
b10000111011110 7
b10000111110111 L
#6090
b10000111011111 7
b10000111111000 L
#6091
b10000111100000 7
b10000111111001 L
#6092
b10000111100001 7
#6093
b10000111100010 7
#6094
b10000111100011 7
#6095
b10000111100100 7
#6096
b10000111100101 7
#6097
b10000111100110 7
#6098
b10000111100111 7
#6099
b10000111101000 7
#6100
b10000111101001 7
#6101
b10000111101010 7
#6102
b10000111101011 7
#6103
b10000111101100 7
#6104
b10000111101101 7
#6105
b10000111101110 7
#6106
b10000111101111 7
#6107
b10000111110000 7
#6108
b10000111110001 7
#6109
b10000111110010 7
#6110
b10000111110011 7
#6111
b10000111110100 7
#6112
b10000111110101 7
#6113
b10000111110110 7
#6114
b10000111110111 7
#6115
b10000111111000 7
#6116
b10000111111001 7
#6716
b10000111111010 L
#6717
b10000111111011 L
#6718
b10000111111100 L
#6719
b10000111111101 L
#6720
b10000111111110 L
#6721
b10000111111111 L
#6725
b10001000000000 L
#6726
b10001000000001 L
#6727
b10001000000010 L
#6728
b10001000000011 L
#6729
b10001000000100 L
#6735
b10001000000101 L
#6744
b10000111111010 7
#6745
b10000111111011 7
#6746
b10000111111100 7
#6747
b10000111111101 7
#6748
b10000111111110 7
#6749
b10000111111111 7
#6798
b10001000000110 L
#6804
b10001000000111 L
#6805
b10001000001000 L
#6806
b10001000001001 L
#6807
b10001000001010 L
#6808
b10001000001011 L
#6809
b10001000001100 L
#6810
b10001000001101 L
#6811
b10001000001110 L
#6812
b10001000000000 7
b10001000001111 L
#6813
b10001000010000 L
#6814
b10001000010001 L
#6815
b10001000010010 L
#6816
b10001000010011 L
#6817
b10001000010100 L
#6818
b10001000010101 L
#6819
b10001000010110 L
#6820
b10001000010111 L
#6821
b10001000011000 L
#6822
b10001000011001 L
#6823
b10001000000001 7
b10001000011010 L
#6824
b10001000000010 7
b10001000011011 L
#6825
b10001000000011 7
b10001000011100 L
#6826
b10001000000100 7
b10001000011101 L
#6827
b10001000000101 7
b10001000011110 L
#6828
b10001000000110 7
b10001000011111 L
#6829
b10001000000111 7
b10001000100000 L
#6830
b10001000001000 7
b10001000100001 L
#6831
b10001000001001 7
b10001000100010 L
#6832
b10001000001010 7
b10001000100011 L
#6833
b10001000001011 7
b10001000100100 L
#6834
b10001000001100 7
b10001000100101 L
#6835
b10001000001101 7
b10001000100110 L
#6836
b10001000001110 7
b10001000100111 L
#6837
b10001000001111 7
b10001000101000 L
#6838
b10001000010000 7
b10001000101001 L
#6839
b10001000010001 7
b10001000101010 L
#6840
b10001000010010 7
b10001000101011 L
#6841
b10001000010011 7
b10001000101100 L
#6842
b10001000010100 7
b10001000101101 L
#6843
b10001000010101 7
b10001000101110 L
#6844
b10001000010110 7
b10001000101111 L
#6845
b10001000010111 7
b10001000110000 L
#6846
b10001000011000 7
b10001000110001 L
#6847
b10001000011001 7
b10001000110010 L
#6848
b10001000011010 7
b10001000110011 L
#6849
b10001000011011 7
b10001000110100 L
#6850
b10001000011100 7
b10001000110101 L
#6851
b10001000011101 7
b10001000110110 L
#6852
b10001000011110 7
b10001000110111 L
#6853
b10001000011111 7
b10001000111000 L
#6854
b10001000100000 7
b10001000111001 L
#6855
b10001000100001 7
#6856
b10001000100010 7
#6857
b10001000100011 7
#6858
b10001000100100 7
#6859
b10001000100101 7
#6860
b10001000100110 7
#6861
b10001000100111 7
#6862
b10001000101000 7
#6863
b10001000101001 7
#6864
b10001000101010 7
#6865
b10001000101011 7
#6866
b10001000101100 7
#6867
b10001000101101 7
#6868
b10001000101110 7
#6869
b10001000101111 7
#6870
b10001000110000 7
#6871
b10001000110001 7
#6872
b10001000110010 7
#6873
b10001000110011 7
#6874
b10001000110100 7
#6875
b10001000110101 7
#6876
b10001000110110 7
#6877
b10001000110111 7
#6878
b10001000111000 7
#6879
b10001000111001 7
