fmc_input/my_ddr_to_vga/.Xil/Vivado-11584-DESKTOP-NM2AVR9/hw_ila_data_1/zip_work/waveform.vcd
$date
        2019-Oct-17 10:25:21
$end
$version
        Vivado v2018.3 (64-bit)
$end
$timescale
        1ps
$end
$scope module dut $end
$var reg 21 " ddr3_top/ddr3_FSM/rd_burst_addr_counter [20:0] $end
$var reg 21 7 ddr3_top/ddr3_FSM/rd_burst_addr_counter_full [20:0] $end
$var reg 4 L ddr3_top/ddr3_FSM/current_state [3:0] $end
$var reg 7 P ddr3_top/ddr3_FSM/ddr3_rd_en_counter [6:0] $end
$var reg 29 W ddr3_top/app_addr [28:0] $end
$var reg 21 t ddr3_top/ddr3_FSM/rd_burst_data_counter_full [20:0] $end
$var reg 22 +" ddr3_top/ddr3_FSM/wr_burst_addr_counter [21:0] $end
$var reg 21 A" ddr3_top/ddr3_FSM/rd_burst_data_counter [20:0] $end
$var reg 1 V" ddr3_top/app_rd_data_valid $end
$var reg 1 W" ddr_fifo_full_s_empty $end
$var reg 1 X" ddr_fifo_s_empty $end
$var reg 1 Y" _TRIGGER $end
$var reg 1 Z" _WINDOW $end
$var reg 1 [" _GAP $end
$upscope $end
$enddefinitions $end
#0
$dumpvars
b0 "
b0 7
b100 L
b0 P
b111111111111111111111000 W
b0 t
b111111111111111111111 +"
b0 A"
0V"
1W"
1X"
0Y"
1Z"
0["
$end
#1000
b101 L
b1000000000000000000000000 W
b0 +"
1Y"
#1001
b0 L
b0 W
#1002
b1 L
#1004
b1 "
b1 P
b1000 W
#1005
b10 "
b10 P
b10000 W
#1006
b11 "
b11 P
b11000 W
#1007
b100 "
b100 P
b100000 W
#1008
b101 "
b101 P
b101000 W
#1018
b110 "
b110 P
b110000 W
#1024
b111 "
b111 P
b111000 W
#1025
b1000 "
b1000 P
b1000000 W
#1026
b1001 "
b1001 P
b1001000 W
#1027
b1010 "
b1010 P
b1010000 W
#1028
b1011 "
b1011 P
b1011000 W
#1029
b1100 "
b1100 P
b1100000 W
#1030
b1101 "
b1101 P
b1101000 W
#1031
b1110 "
b1110 P
b1110000 W
#1032
b1111 "
b1111 P
b1111000 W
#1033
b10000 "
b10000 P
b10000000 W
#1034
b10001 "
b10001 P
b10001000 W
#1035
b10010 "
b10010 P
b10010000 W
#1036
b10011 "
b10011 P
b10011000 W
#1037
b10100 "
b10100 P
b10100000 W
#1038
b10101 "
b10101 P
b10101000 W
#1039
b10110 "
b10110 P
b10110000 W
#1040
b10111 "
b10111 P
b10111000 W
#1041
b11000 "
b11000 P
b11000000 W
#1042
b11001 "
b11001 P
b11001000 W
1V"
#1043
b11010 "
b11010 P
b11010000 W
b1 A"
#1044
b11011 "
b11011 P
b11011000 W
b10 A"
#1045
b11100 "
b11100 P
b11100000 W
b11 A"
#1046
b11101 "
b11101 P
b11101000 W
b100 A"
#1047
b11110 "
b11110 P
b11110000 W
b101 A"
#1048
b11111 "
b11111 P
b11111000 W
b110 A"
0X"
#1049
b100000 "
b100000 P
b100000000 W
b111 A"
#1050
b100001 "
b100001 P
b100001000 W
b1000 A"
#1051
b100010 "
b100010 P
b100010000 W
b1001 A"
#1052
b100011 "
b100011 P
b100011000 W
b1010 A"
#1053
b100100 "
b100100 P
b100100000 W
b1011 A"
#1054
b100101 "
b100101 P
b100101000 W
b1100 A"
#1055
b100110 "
b100110 P
b100110000 W
b1101 A"
#1056
b100111 "
b100111 P
b100111000 W
b1110 A"
#1057
b101000 "
b101000 P
b101000000 W
b1111 A"
#1058
b101001 "
b101001 P
b101001000 W
b10000 A"
#1059
b101010 "
b101010 P
b101010000 W
b10001 A"
#1060
b101011 "
b101011 P
b101011000 W
b10010 A"
#1061
b101100 "
b101100 P
b101100000 W
b10011 A"
#1062
b101101 "
b101101 P
b101101000 W
b10100 A"
#1063
b101110 "
b101110 P
b101110000 W
b10101 A"
#1064
b101111 "
b101111 P
b101111000 W
b10110 A"
#1065
b110000 "
b110000 P
b110000000 W
b10111 A"
#1066
b110001 "
b110001 P
b110001000 W
b11000 A"
#1067
b110010 "
b110010 P
b110010000 W
b11001 A"
#1068
b110011 "
b110011 P
b110011000 W
b11010 A"
#1069
b110100 "
b110100 P
b110100000 W
b11011 A"
#1070
b110101 "
b110101 P
b110101000 W
b11100 A"
#1071
b110110 "
b110110 P
b110110000 W
b11101 A"
#1072
b110111 "
b110111 P
b110111000 W
b11110 A"
#1073
b111000 "
b111000 P
b111000000 W
b11111 A"
#1074
b111001 "
b111001 P
b111001000 W
b100000 A"
#1075
b111010 "
b111010 P
b111010000 W
b100001 A"
#1076
b111011 "
b111011 P
b111011000 W
b100010 A"
#1077
b111100 "
b111100 P
b111100000 W
b100011 A"
#1078
b111101 "
b111101 P
b111101000 W
b100100 A"
#1079
b111110 "
b111110 P
b111110000 W
b100101 A"
#1080
b111111 "
b111111 P
b111111000 W
b100110 A"
#1081
b1000000 "
b0 P
b1000000000 W
b100111 A"
#1082
b101000 A"
#1083
b101001 A"
#1084
b101010 A"
#1085
b101011 A"
#1086
b101100 A"
#1087
b101101 A"
#1088
b101110 A"
#1089
b101111 A"
#1090
b110000 A"
#1091
b110001 A"
#1092
b110010 A"
#1093
b110011 A"
#1094
b110100 A"
#1095
b110101 A"
#1096
b110110 A"
#1097
b110111 A"
#1098
b111000 A"
#1099
b111001 A"
#1100
b111010 A"
#1101
b111011 A"
#1102
b111100 A"
#1103
b111101 A"
#1104
b111110 A"
#1105
b111111 A"
#1106
b1000000 A"
0V"
#1107
b111 L
#1108
b110 L
b0 W
#1110
b1 7
b1000 W
#1111
b10 7
b10000 W
#1112
b11 7
b11000 W
1X"
#1113
b100 7
b100000 W
#1114
b101 7
b101000 W
#1115
b110 7
b110000 W
#1119
b111 7
b111000 W
#1120
b1000 7
b1000000 W
#1121
b1001 7
b1001000 W
#1122
b1010 7
b1010000 W
#1123
b1011 7
b1011000 W
#1124
b1100 7
b1100000 W
#1125
b1101 7
b1101000 W
#1126
b1110 7
b1110000 W
#1127
b1111 7
b1111000 W
#1128
b10000 7
b10000000 W
#1129
b10001 7
b10001000 W
#1130
b10010 7
b10010000 W
#1131
b10011 7
b10011000 W
#1132
b10100 7
b10100000 W
#1133
b10101 7
b10101000 W
#1134
b10110 7
b10110000 W
#1135
b10111 7
b10111000 W
#1136
b11000 7
b11000000 W
#1137
b11001 7
b11001000 W
1V"
#1138
b11010 7
b11010000 W
b1 t
#1139
b11011 7
b11011000 W
b10 t
#1140
b11100 7
b11100000 W
b11 t
#1141
b11101 7
b11101000 W
b100 t
#1142
b11110 7
b11110000 W
b101 t
#1143
b11111 7
b11111000 W
b110 t
0W"
#1144
b100000 7
b100000000 W
b111 t
#1145
b100001 7
b100001000 W
b1000 t
#1146
b100010 7
b100010000 W
b1001 t
#1147
b100011 7
b100011000 W
b1010 t
#1148
b100100 7
b100100000 W
b1011 t
#1149
b100101 7
b100101000 W
b1100 t
#1150
b100110 7
b100110000 W
b1101 t
#1151
b100111 7
b100111000 W
b1110 t
#1152
b101000 7
b101000000 W
b1111 t
#1153
b101001 7
b101001000 W
b10000 t
#1154
b101010 7
b101010000 W
b10001 t
#1155
b101011 7
b101011000 W
b10010 t
#1156
b101100 7
b101100000 W
b10011 t
#1157
b101101 7
b101101000 W
b10100 t
#1158
b101110 7
b101110000 W
b10101 t
#1159
b101111 7
b101111000 W
b10110 t
#1160
b110000 7
b110000000 W
b10111 t
#1161
b110001 7
b110001000 W
b11000 t
#1162
b110010 7
b110010000 W
b11001 t
#1163
b110011 7
b110011000 W
b11010 t
#1164
b110100 7
b110100000 W
b11011 t
#1165
b110101 7
b110101000 W
b11100 t
#1166
b110110 7
b110110000 W
b11101 t
#1167
b110111 7
b110111000 W
b11110 t
#1168
b111000 7
b111000000 W
b11111 t
#1169
b111001 7
b111001000 W
b100000 t
#1170
b111010 7
b111010000 W
b100001 t
#1171
b111011 7
b111011000 W
b100010 t
#1172
b111100 7
b111100000 W
b100011 t
#1173
b111101 7
b111101000 W
b100100 t
#1174
b111110 7
b111110000 W
b100101 t
#1175
b111111 7
b111111000 W
b100110 t
#1176
b1000000 7
b1000000000 W
b100111 t
#1177
b101000 t
#1178
b101001 t
#1179
b101010 t
#1180
b101011 t
#1181
b101100 t
#1182
b101101 t
#1183
b101110 t
#1184
b101111 t
#1185
b110000 t
#1186
b110001 t
#1187
b110010 t
#1188
b110011 t
#1189
b110100 t
#1190
b110101 t
#1191
b110110 t
#1192
b110111 t
#1193
b111000 t
#1194
b111001 t
#1195
b111010 t
#1196
b111011 t
#1197
b111100 t
#1198
b111101 t
#1199
b111110 t
#1200
b111111 t
#1201
b1000000 t
0V"
#1202
b1000 L
#1203
b1 L
#1205
b1000001 "
b1 P
b1000001000 W
#1206
b1000010 "
b10 P
b1000010000 W
#1207
b1000011 "
b11 P
b1000011000 W
1W"
#1208
b1000100 "
b100 P
b1000100000 W
#1209
b1000101 "
b101 P
b1000101000 W
#1210
b1000110 "
b110 P
b1000110000 W
#1214
b1000111 "
b111 P
b1000111000 W
#1215
b1001000 "
b1000 P
b1001000000 W
#1216
b1001001 "
b1001 P
b1001001000 W
#1217
b1001010 "
b1010 P
b1001010000 W
#1218
b1001011 "
b1011 P
b1001011000 W
#1219
b1001100 "
b1100 P
b1001100000 W
#1220
b1001101 "
b1101 P
b1001101000 W
#1221
b1001110 "
b1110 P
b1001110000 W
#1222
b1001111 "
b1111 P
b1001111000 W
#1223
b1010000 "
b10000 P
b1010000000 W
#1224
b1010001 "
b10001 P
b1010001000 W
#1225
b1010010 "
b10010 P
b1010010000 W
#1226
b1010011 "
b10011 P
b1010011000 W
#1227
b1010100 "
b10100 P
b1010100000 W
#1228
b1010101 "
b10101 P
b1010101000 W
#1229
b1010110 "
b10110 P
b1010110000 W
#1230
b1010111 "
b10111 P
b1010111000 W
#1231
b1011000 "
b11000 P
b1011000000 W
#1232
b1011001 "
b11001 P
b1011001000 W
1V"
#1233
b1011010 "
b11010 P
b1011010000 W
b1000001 A"
#1234
b1011011 "
b11011 P
b1011011000 W
b1000010 A"
#1235
b1011100 "
b11100 P
b1011100000 W
b1000011 A"
#1236
b1011101 "
b11101 P
b1011101000 W
b1000100 A"
#1237
b1011110 "
b11110 P
b1011110000 W
b1000101 A"
#1238
b1011111 "
b11111 P
b1011111000 W
b1000110 A"
0X"
#1239
b1100000 "
b100000 P
b1100000000 W
b1000111 A"
#1240
b1100001 "
b100001 P
b1100001000 W
b1001000 A"
#1241
b1100010 "
b100010 P
b1100010000 W
b1001001 A"
#1242
b1100011 "
b100011 P
b1100011000 W
b1001010 A"
#1243
b1100100 "
b100100 P
b1100100000 W
b1001011 A"
#1244
b1100101 "
b100101 P
b1100101000 W
b1001100 A"
#1245
b1100110 "
b100110 P
b1100110000 W
b1001101 A"
#1246
b1100111 "
b100111 P
b1100111000 W
b1001110 A"
#1247
b1101000 "
b101000 P
b1101000000 W
b1001111 A"
#1248
b1101001 "
b101001 P
b1101001000 W
b1010000 A"
#1249
b1101010 "
b101010 P
b1101010000 W
b1010001 A"
#1250
b1101011 "
b101011 P
b1101011000 W
b1010010 A"
#1251
b1101100 "
b101100 P
b1101100000 W
b1010011 A"
#1252
b1101101 "
b101101 P
b1101101000 W
b1010100 A"
#1253
b1101110 "
b101110 P
b1101110000 W
b1010101 A"
#1254
b1101111 "
b101111 P
b1101111000 W
b1010110 A"
#1255
b1110000 "
b110000 P
b1110000000 W
b1010111 A"
#1256
b1110001 "
b110001 P
b1110001000 W
b1011000 A"
#1257
b1110010 "
b110010 P
b1110010000 W
b1011001 A"
#1258
b1110011 "
b110011 P
b1110011000 W
b1011010 A"
#1259
b1110100 "
b110100 P
b1110100000 W
b1011011 A"
#1260
b1110101 "
b110101 P
b1110101000 W
b1011100 A"
#1261
b1110110 "
b110110 P
b1110110000 W
b1011101 A"
#1262
b1110111 "
b110111 P
b1110111000 W
b1011110 A"
#1263
b1111000 "
b111000 P
b1111000000 W
b1011111 A"
#1264
b1111001 "
b111001 P
b1111001000 W
b1100000 A"
#1265
b1111010 "
b111010 P
b1111010000 W
b1100001 A"
#1266
b1111011 "
b111011 P
b1111011000 W
b1100010 A"
#1267
b1111100 "
b111100 P
b1111100000 W
b1100011 A"
#1268
b1111101 "
b111101 P
b1111101000 W
b1100100 A"
#1269
b1111110 "
b111110 P
b1111110000 W
b1100101 A"
#1270
b1111111 "
b111111 P
b1111111000 W
b1100110 A"
#1271
b10000000 "
b0 P
b10000000000 W
b1100111 A"
#1272
b1101000 A"
#1273
b1101001 A"
#1274
b1101010 A"
#1275
b1101011 A"
#1276
b1101100 A"
#1277
b1101101 A"
#1278
b1101110 A"
#1279
b1101111 A"
#1280
b1110000 A"
#1281
b1110001 A"
#1282
b1110010 A"
#1283
b1110011 A"
#1284
b1110100 A"
#1285
b1110101 A"
#1286
b1110110 A"
#1287
b1110111 A"
#1288
b1111000 A"
#1289
b1111001 A"
#1290
b1111010 A"
#1291
b1111011 A"
#1292
b1111100 A"
#1293
b1111101 A"
#1294
b1111110 A"
#1295
b1111111 A"
#1296
b10000000 A"
0V"
#1297
b111 L
#1298
b110 L
b1000000000 W
#1300
b1000001 7
b1000001000 W
#1301
b1000010 7
b1000010000 W
#1302
b1000011 7
b1000011000 W
1X"
#1303
b1000100 7
b1000100000 W
#1304
b1000101 7
b1000101000 W
#1305
b1000110 7
b1000110000 W
#1309
b1000111 7
b1000111000 W
#1310
b1001000 7
b1001000000 W
#1311
b1001001 7
b1001001000 W
#1312
b1001010 7
b1001010000 W
#1313
b1001011 7
b1001011000 W
#1314
b1001100 7
b1001100000 W
#1315
b1001101 7
b1001101000 W
#1316
b1001110 7
b1001110000 W
#1317
b1001111 7
b1001111000 W
#1318
b1010000 7
b1010000000 W
#1319
b1010001 7
b1010001000 W
#1320
b1010010 7
b1010010000 W
#1321
b1010011 7
b1010011000 W
#1322
b1010100 7
b1010100000 W
#1323
b1010101 7
b1010101000 W
#1324
b1010110 7
b1010110000 W
#1325
b1010111 7
b1010111000 W
#1326
b1011000 7
b1011000000 W
#1327
b1011001 7
b1011001000 W
1V"
#1328
b1011010 7
b1011010000 W
b1000001 t
#1329
b1011011 7
b1011011000 W
b1000010 t
#1330
b1011100 7
b1011100000 W
b1000011 t
#1331
b1011101 7
b1011101000 W
b1000100 t
#1332
b1011110 7
b1011110000 W
b1000101 t
#1333
b1011111 7
b1011111000 W
b1000110 t
0W"
#1334
b1100000 7
b1100000000 W
b1000111 t
#1335
b1100001 7
b1100001000 W
b1001000 t
#1336
b1100010 7
b1100010000 W
b1001001 t
#1337
b1100011 7
b1100011000 W
b1001010 t
#1338
b1100100 7
b1100100000 W
b1001011 t
#1339
b1100101 7
b1100101000 W
b1001100 t
#1340
b1100110 7
b1100110000 W
b1001101 t
#1341
b1100111 7
b1100111000 W
b1001110 t
#1342
b1101000 7
b1101000000 W
b1001111 t
#1343
b1101001 7
b1101001000 W
b1010000 t
#1344
b1101010 7
b1101010000 W
b1010001 t
#1345
b1101011 7
b1101011000 W
b1010010 t
#1346
b1101100 7
b1101100000 W
b1010011 t
#1347
b1101101 7
b1101101000 W
b1010100 t
#1348
b1101110 7
b1101110000 W
b1010101 t
#1349
b1101111 7
b1101111000 W
b1010110 t
#1350
b1110000 7
b1110000000 W
b1010111 t
#1351
b1110001 7
b1110001000 W
b1011000 t
#1352
b1110010 7
b1110010000 W
b1011001 t
#1353
b1110011 7
b1110011000 W
b1011010 t
#1354
b1110100 7
b1110100000 W
b1011011 t
#1355
b1110101 7
b1110101000 W
b1011100 t
#1356
b1110110 7
b1110110000 W
b1011101 t
#1357
b1110111 7
b1110111000 W
b1011110 t
#1358
b1111000 7
b1111000000 W
b1011111 t
#1359
b1111001 7
b1111001000 W
b1100000 t
#1360
b1111010 7
b1111010000 W
b1100001 t
#1361
b1111011 7
b1111011000 W
b1100010 t
#1362
b1111100 7
b1111100000 W
b1100011 t
#1363
b1111101 7
b1111101000 W
b1100100 t
#1364
b1111110 7
b1111110000 W
b1100101 t
#1365
b1111111 7
b1111111000 W
b1100110 t
#1366
b10000000 7
b10000000000 W
b1100111 t
#1367
b1101000 t
#1368
b1101001 t
#1369
b1101010 t
#1370
b1101011 t
#1371
b1101100 t
#1372
b1101101 t
#1373
b1101110 t
#1374
b1101111 t
#1375
b1110000 t
#1376
b1110001 t
#1377
b1110010 t
#1378
b1110011 t
#1379
b1110100 t
#1380
b1110101 t
#1381
b1110110 t
#1382
b1110111 t
#1383
b1111000 t
#1384
b1111001 t
#1385
b1111010 t
#1386
b1111011 t
#1387
b1111100 t
#1388
b1111101 t
#1389
b1111110 t
#1390
b1111111 t
#1391
b10000000 t
0V"
#1392
b1000 L
#1393
b1 L
#1395
b10000001 "
b1 P
b10000001000 W
#1396
b10000010 "
b10 P
b10000010000 W
#1397
b10000011 "
b11 P
b10000011000 W
1W"
#1398
b10000100 "
b100 P
b10000100000 W
#1399
b10000101 "
b101 P
b10000101000 W
#1400
b10000110 "
b110 P
b10000110000 W
#1404
b10000111 "
b111 P
b10000111000 W
#1405
b10001000 "
b1000 P
b10001000000 W
#1406
b10001001 "
b1001 P
b10001001000 W
#1407
b10001010 "
b1010 P
b10001010000 W
#1408
b10001011 "
b1011 P
b10001011000 W
#1409
b10001100 "
b1100 P
b10001100000 W
#1410
b10001101 "
b1101 P
b10001101000 W
#1411
b10001110 "
b1110 P
b10001110000 W
#1412
b10001111 "
b1111 P
b10001111000 W
#1413
b10010000 "
b10000 P
b10010000000 W
#1414
b10010001 "
b10001 P
b10010001000 W
#1415
b10010010 "
b10010 P
b10010010000 W
#1416
b10010011 "
b10011 P
b10010011000 W
#1417
b10010100 "
b10100 P
b10010100000 W
#1418
b10010101 "
b10101 P
b10010101000 W
#1419
b10010110 "
b10110 P
b10010110000 W
#1420
b10010111 "
b10111 P
b10010111000 W
#1421
b10011000 "
b11000 P
b10011000000 W
#1422
b10011001 "
b11001 P
b10011001000 W
1V"
#1423
b10011010 "
b11010 P
b10011010000 W
b10000001 A"
#1424
b10011011 "
b11011 P
b10011011000 W
b10000010 A"
#1425
b10011100 "
b11100 P
b10011100000 W
b10000011 A"
#1426
b10011101 "
b11101 P
b10011101000 W
b10000100 A"
#1427
b10011110 "
b11110 P
b10011110000 W
b10000101 A"
#1428
b10011111 "
b11111 P
b10011111000 W
b10000110 A"
0X"
#1429
b10100000 "
b100000 P
b10100000000 W
b10000111 A"
#1430
b10100001 "
b100001 P
b10100001000 W
b10001000 A"
#1431
b10100010 "
b100010 P
b10100010000 W
b10001001 A"
#1432
b10100011 "
b100011 P
b10100011000 W
b10001010 A"
#1433
b10100100 "
b100100 P
b10100100000 W
b10001011 A"
#1434
b10100101 "
b100101 P
b10100101000 W
b10001100 A"
#1435
b10100110 "
b100110 P
b10100110000 W
b10001101 A"
#1436
b10100111 "
b100111 P
b10100111000 W
b10001110 A"
#1437
b10101000 "
b101000 P
b10101000000 W
b10001111 A"
#1438
b10101001 "
b101001 P
b10101001000 W
b10010000 A"
#1439
b10101010 "
b101010 P
b10101010000 W
b10010001 A"
#1440
b10101011 "
b101011 P
b10101011000 W
b10010010 A"
#1441
b10101100 "
b101100 P
b10101100000 W
b10010011 A"
#1442
b10101101 "
b101101 P
b10101101000 W
b10010100 A"
#1443
b10101110 "
b101110 P
b10101110000 W
b10010101 A"
#1444
b10101111 "
b101111 P
b10101111000 W
b10010110 A"
#1445
b10110000 "
b110000 P
b10110000000 W
b10010111 A"
#1446
b10110001 "
b110001 P
b10110001000 W
b10011000 A"
#1447
b10110010 "
b110010 P
b10110010000 W
b10011001 A"
#1448
b10110011 "
b110011 P
b10110011000 W
b10011010 A"
#1449
b10110100 "
b110100 P
b10110100000 W
b10011011 A"
#1450
b10110101 "
b110101 P
b10110101000 W
b10011100 A"
#1451
b10110110 "
b110110 P
b10110110000 W
b10011101 A"
#1452
b10110111 "
b110111 P
b10110111000 W
b10011110 A"
#1453
b10111000 "
b111000 P
b10111000000 W
b10011111 A"
#1454
b10111001 "
b111001 P
b10111001000 W
b10100000 A"
#1455
b10111010 "
b111010 P
b10111010000 W
b10100001 A"
#1456
b10111011 "
b111011 P
b10111011000 W
b10100010 A"
#1457
b10111100 "
b111100 P
b10111100000 W
b10100011 A"
#1458
b10111101 "
b111101 P
b10111101000 W
b10100100 A"
#1459
b10111110 "
b111110 P
b10111110000 W
b10100101 A"
#1460
b10111111 "
b111111 P
b10111111000 W
b10100110 A"
#1461
b11000000 "
b0 P
b11000000000 W
b10100111 A"
#1462
b10101000 A"
#1463
b10101001 A"
#1464
b10101010 A"
#1465
b10101011 A"
#1466
b10101100 A"
#1467
b10101101 A"
#1468
b10101110 A"
#1469
b10101111 A"
#1470
b10110000 A"
#1471
b10110001 A"
#1472
b10110010 A"
#1473
b10110011 A"
#1474
b10110100 A"
#1475
b10110101 A"
#1476
b10110110 A"
#1477
b10110111 A"
#1478
b10111000 A"
#1479
b10111001 A"
#1480
b10111010 A"
#1481
b10111011 A"
#1482
b10111100 A"
#1483
b10111101 A"
#1484
b10111110 A"
#1485
b10111111 A"
#1486
b11000000 A"
0V"
#1487
b111 L
#1488
b110 L
b10000000000 W
#1490
b10000001 7
b10000001000 W
#1491
b10000010 7
b10000010000 W
#1492
b10000011 7
b10000011000 W
1X"
#1493
b10000100 7
b10000100000 W
#1494
b10000101 7
b10000101000 W
#1495
b10000110 7
b10000110000 W
#1499
b10000111 7
b10000111000 W
#1500
b10001000 7
b10001000000 W
#1501
b10001001 7
b10001001000 W
#1502
b10001010 7
b10001010000 W
#1503
b10001011 7
b10001011000 W
#1504
b10001100 7
b10001100000 W
#1505
b10001101 7
b10001101000 W
#1506
b10001110 7
b10001110000 W
#1507
b10001111 7
b10001111000 W
#1508
b10010000 7
b10010000000 W
#1509
b10010001 7
b10010001000 W
#1510
b10010010 7
b10010010000 W
#1511
b10010011 7
b10010011000 W
#1512
b10010100 7
b10010100000 W
#1513
b10010101 7
b10010101000 W
#1514
b10010110 7
b10010110000 W
#1515
b10010111 7
b10010111000 W
#1516
b10011000 7
b10011000000 W
#1517
b10011001 7
b10011001000 W
1V"
#1518
b10011010 7
b10011010000 W
b10000001 t
#1519
b10011011 7
b10011011000 W
b10000010 t
#1520
b10011100 7
b10011100000 W
b10000011 t
#1521
b10011101 7
b10011101000 W
b10000100 t
#1522
b10011110 7
b10011110000 W
b10000101 t
#1523
b10011111 7
b10011111000 W
b10000110 t
0W"
#1524
b10100000 7
b10100000000 W
b10000111 t
#1525
b10100001 7
b10100001000 W
b10001000 t
#1526
b10100010 7
b10100010000 W
b10001001 t
#1527
b10100011 7
b10100011000 W
b10001010 t
#1528
b10100100 7
b10100100000 W
b10001011 t
#1529
b10100101 7
b10100101000 W
b10001100 t
#1530
b10100110 7
b10100110000 W
b10001101 t
#1531
b10100111 7
b10100111000 W
b10001110 t
#1532
b10101000 7
b10101000000 W
b10001111 t
#1533
b10101001 7
b10101001000 W
b10010000 t
#1534
b10101010 7
b10101010000 W
b10010001 t
#1535
b10101011 7
b10101011000 W
b10010010 t
#1536
b10101100 7
b10101100000 W
b10010011 t
#1537
b10101101 7
b10101101000 W
b10010100 t
#1538
b10101110 7
b10101110000 W
b10010101 t
#1539
b10101111 7
b10101111000 W
b10010110 t
#1540
b10110000 7
b10110000000 W
b10010111 t
#1541
b10110001 7
b10110001000 W
b10011000 t
#1542
b10110010 7
b10110010000 W
b10011001 t
#1543
b10110011 7
b10110011000 W
b10011010 t
#1544
b10110100 7
b10110100000 W
b10011011 t
#1545
b10110101 7
b10110101000 W
b10011100 t
#1546
b10011101 t
#1547
b10011110 t
#1548
b10011111 t
#1549
b10100000 t
#1550
b10100001 t
#1551
b10110110 7
b10110110000 W
b10100010 t
#1552
b10100011 t
#1553
b10100100 t
#1554
b10100101 t
#1555
b10100110 t
#1556
b10100111 t
#1557
b10101000 t
#1558
b10101001 t
#1559
b10101010 t
#1560
b10101011 t
#1561
b10101100 t
#1562
b10101101 t
#1563
b10101110 t
#1564
b10101111 t
#1565
b10110000 t
0V"
#1571
1W"
#1609
b10110111 7
b10110111000 W
#1610
b10111000 7
b10111000000 W
#1611
b10111001 7
b10111001000 W
#1612
b10111010 7
b10111010000 W
#1613
b10111011 7
b10111011000 W
#1614
b10111100 7
b10111100000 W
#1615
b10111101 7
b10111101000 W
#1616
b10111110 7
b10111110000 W
#1617
b10111111 7
b10111111000 W
#1618
b11000000 7
b11000000000 W
#1627
1V"
#1628
b10110001 t
#1629
b10110010 t
#1630
b10110011 t
#1631
b10110100 t
#1632
b10110101 t
#1633
b10110110 t
0W"
#1634
b10110111 t
#1635
b10111000 t
#1636
b10111001 t
#1637
b10111010 t
#1638
b10111011 t
#1639
b10111100 t
#1640
b10111101 t
#1641
b10111110 t
#1642
b10111111 t
#1643
b11000000 t
0V"
#1644
b1000 L
#1645
b1 L
#1647
b11000001 "
b1 P
b11000001000 W
#1648
b11000010 "
b10 P
b11000010000 W
#1649
b11000011 "
b11 P
b11000011000 W
1W"
#1650
b11000100 "
b100 P
b11000100000 W
#1651
b11000101 "
b101 P
b11000101000 W
#1652
b11000110 "
b110 P
b11000110000 W
#1656
b11000111 "
b111 P
b11000111000 W
#1657
b11001000 "
b1000 P
b11001000000 W
#1658
b11001001 "
b1001 P
b11001001000 W
#1659
b11001010 "
b1010 P
b11001010000 W
#1660
b11001011 "
b1011 P
b11001011000 W
#1661
b11001100 "
b1100 P
b11001100000 W
#1662
b11001101 "
b1101 P
b11001101000 W
#1663
b11001110 "
b1110 P
b11001110000 W
#1664
b11001111 "
b1111 P
b11001111000 W
#1665
b11010000 "
b10000 P
b11010000000 W
#1666
b11010001 "
b10001 P
b11010001000 W
#1667
b11010010 "
b10010 P
b11010010000 W
#1668
b11010011 "
b10011 P
b11010011000 W
#1669
b11010100 "
b10100 P
b11010100000 W
#1670
b11010101 "
b10101 P
b11010101000 W
#1671
b11010110 "
b10110 P
b11010110000 W
#1672
b11010111 "
b10111 P
b11010111000 W
#1673
b11011000 "
b11000 P
b11011000000 W
#1674
b11011001 "
b11001 P
b11011001000 W
1V"
#1675
b11011010 "
b11010 P
b11011010000 W
b11000001 A"
#1676
b11011011 "
b11011 P
b11011011000 W
b11000010 A"
#1677
b11011100 "
b11100 P
b11011100000 W
b11000011 A"
#1678
b11011101 "
b11101 P
b11011101000 W
b11000100 A"
#1679
b11011110 "
b11110 P
b11011110000 W
b11000101 A"
#1680
b11011111 "
b11111 P
b11011111000 W
b11000110 A"
0X"
#1681
b11100000 "
b100000 P
b11100000000 W
b11000111 A"
#1682
b11100001 "
b100001 P
b11100001000 W
b11001000 A"
#1683
b11100010 "
b100010 P
b11100010000 W
b11001001 A"
#1684
b11100011 "
b100011 P
b11100011000 W
b11001010 A"
#1685
b11100100 "
b100100 P
b11100100000 W
b11001011 A"
#1686
b11100101 "
b100101 P
b11100101000 W
b11001100 A"
#1687
b11100110 "
b100110 P
b11100110000 W
b11001101 A"
#1688
b11100111 "
b100111 P
b11100111000 W
b11001110 A"
#1689
b11101000 "
b101000 P
b11101000000 W
b11001111 A"
#1690
b11101001 "
b101001 P
b11101001000 W
b11010000 A"
#1691
b11101010 "
b101010 P
b11101010000 W
b11010001 A"
#1692
b11101011 "
b101011 P
b11101011000 W
b11010010 A"
#1693
b11101100 "
b101100 P
b11101100000 W
b11010011 A"
#1694
b11101101 "
b101101 P
b11101101000 W
b11010100 A"
#1695
b11101110 "
b101110 P
b11101110000 W
b11010101 A"
#1696
b11101111 "
b101111 P
b11101111000 W
b11010110 A"
#1697
b11110000 "
b110000 P
b11110000000 W
b11010111 A"
#1698
b11110001 "
b110001 P
b11110001000 W
b11011000 A"
#1699
b11110010 "
b110010 P
b11110010000 W
b11011001 A"
#1700
b11110011 "
b110011 P
b11110011000 W
b11011010 A"
#1701
b11110100 "
b110100 P
b11110100000 W
b11011011 A"
#1702
b11110101 "
b110101 P
b11110101000 W
b11011100 A"
#1703
b11110110 "
b110110 P
b11110110000 W
b11011101 A"
#1704
b11110111 "
b110111 P
b11110111000 W
b11011110 A"
#1705
b11111000 "
b111000 P
b11111000000 W
b11011111 A"
#1706
b11111001 "
b111001 P
b11111001000 W
b11100000 A"
#1707
b11111010 "
b111010 P
b11111010000 W
b11100001 A"
#1708
b11111011 "
b111011 P
b11111011000 W
b11100010 A"
#1709
b11111100 "
b111100 P
b11111100000 W
b11100011 A"
#1710
b11111101 "
b111101 P
b11111101000 W
b11100100 A"
#1711
b11111110 "
b111110 P
b11111110000 W
b11100101 A"
#1712
b11111111 "
b111111 P
b11111111000 W
b11100110 A"
#1713
b100000000 "
b0 P
b10000000000000 W
b11100111 A"
#1714
b11101000 A"
#1715
b11101001 A"
#1716
b11101010 A"
#1717
b11101011 A"
#1718
b11101100 A"
#1719
b11101101 A"
#1720
b11101110 A"
#1721
b11101111 A"
#1722
b11110000 A"
#1723
b11110001 A"
#1724
b11110010 A"
#1725
b11110011 A"
#1726
b11110100 A"
#1727
b11110101 A"
#1728
b11110110 A"
#1729
b11110111 A"
#1730
b11111000 A"
#1731
b11111001 A"
#1732
b11111010 A"
#1733
b11111011 A"
#1734
b11111100 A"
#1735
b11111101 A"
#1736
b11111110 A"
#1737
b11111111 A"
#1738
b100000000 A"
0V"
#1739
b111 L
#1740
b110 L
b11000000000 W
#1742
b11000001 7
b11000001000 W
#1743
b11000010 7
b11000010000 W
#1744
b11000011 7
b11000011000 W
1X"
#1745
b11000100 7
b11000100000 W
#1746
b11000101 7
b11000101000 W
#1747
b11000110 7
b11000110000 W
#1751
b11000111 7
b11000111000 W
#1752
b11001000 7
b11001000000 W
#1753
b11001001 7
b11001001000 W
#1754
b11001010 7
b11001010000 W
#1755
b11001011 7
b11001011000 W
