fmc_imput2/my_ddr_to_vga/.Xil/Vivado-17576-DESKTOP-NM2AVR9/iladata/zip_work/iladata.vcd
$date
        2019-Sep-20 10:56:32
$end
$version
        Vivado v2018.3 (64-bit)
$end
$timescale
        1ps
$end
$scope module dut $end
$var reg 3 " app_cmd [2:0] $end
$var reg 29 % app_addr [28:0] $end
$var reg 256 B app_rd_data [255:0] $end
$var reg 256 ($ app_wdf_data [255:0] $end
$var reg 11 l& counter [10:0] $end
$var reg 1 w& app_en $end
$var reg 1 x& app_rd_data_end $end
$var reg 1 y& app_rd_data_valid $end
$var reg 1 z& app_rdy $end
$var reg 1 {& app_wdf_rdy $end
$var reg 1 |& app_wdf_wren $end
$var reg 1 }& ui_clk $end
$var reg 1 ~& ui_clk_sync_rst $end
$var reg 1 !' _TRIGGER $end
$var reg 1 "' _WINDOW $end
$var reg 1 #' _GAP $end
$upscope $end
$enddefinitions $end
#0
$dumpvars
b0 "
b0 %
b1111001111 B
b0 ($
b0 l&
1w&
1x&
1y&
1z&
1{&
1|&
0}&
0~&
1!'
1"'
0#'
$end
#1
b1000 %
b1111010000 B
b1 ($
b1 l&
#2
b10000 %
b1111010001 B
b10 ($
b10 l&
#3
b11000 %
b1111010010 B
b11 ($
b11 l&
#4
b100000 %
b1111010011 B
b100 ($
b100 l&
#5
b101000 %
b1111010100 B
b101 ($
b101 l&
0z&
0|&
#6
b1111010101 B
#7
b1111010110 B
#8
b1111010111 B
#9
b1111011000 B
#10
b1111011001 B
1z&
1|&
#11
b110000 %
b1111011010 B
b110 ($
b110 l&
0z&
0|&
#12
b1111011011 B
#13
b1111011100 B
#14
b1111011101 B
#15
b1111011110 B
#16
b1111011111 B
1z&
1|&
#17
b111000 %
b1111100000 B
b111 ($
b111 l&
#18
b1000000 %
b1111100001 B
b1000 ($
b1000 l&
#19
b1001000 %
b1111100010 B
b1001 ($
b1001 l&
#20
b1010000 %
b1111100011 B
b1010 ($
b1010 l&
#21
b1011000 %
b1111100100 B
b1011 ($
b1011 l&
#22
b1100000 %
b1111100101 B
b1100 ($
b1100 l&
#23
b1101000 %
b1111100110 B
b1101 ($
b1101 l&
#24
b1110000 %
b1111100111 B
b1110 ($
b1110 l&
#25
b1111000 %
b1111001000 B
b1111 ($
b1111 l&
0y&
#26
b10000000 %
b10000 ($
b10000 l&
#27
b10001000 %
b10001 ($
b10001 l&
#28
b10010000 %
b10010 ($
b10010 l&
#29
b10011000 %
b10011 ($
b10011 l&
#30
b10100000 %
b10100 ($
b10100 l&
#31
b10101000 %
b10101 ($
b10101 l&
#32
b10110000 %
b10110 ($
b10110 l&
#33
b10111000 %
b10111 ($
b10111 l&
#34
b11000000 %
b11000 ($
b11000 l&
#35
b11001000 %
b11001 ($
b11001 l&
#36
b11010000 %
b11010 ($
b11010 l&
#37
b11011000 %
b11011 ($
b11011 l&
#38
b11100000 %
b11100 ($
b11100 l&
#39
b11101000 %
b11101 ($
b11101 l&
#40
b11110000 %
b11110 ($
b11110 l&
#41
b11111000 %
b11111 ($
b11111 l&
#42
b100000000 %
b100000 ($
b100000 l&
#43
b100001000 %
b100001 ($
b100001 l&
#44
b100010000 %
b100010 ($
b100010 l&
#45
b100011000 %
b100011 ($
b100011 l&
#46
b100100000 %
b100100 ($
b100100 l&
#47
b100101000 %
b100101 ($
b100101 l&
#48
b100110000 %
b100110 ($
b100110 l&
#49
b100111000 %
b100111 ($
b100111 l&
#50
b101000000 %
b101000 ($
b101000 l&
#51
b101001000 %
b101001 ($
b101001 l&
#52
b101010000 %
b101010 ($
b101010 l&
#53
b101011000 %
b101011 ($
b101011 l&
#54
b101100000 %
b101100 ($
b101100 l&
#55
b101101000 %
b101101 ($
b101101 l&
#56
b101110000 %
b101110 ($
b101110 l&
#57
b101111000 %
b101111 ($
b101111 l&
#58
b110000000 %
b110000 ($
b110000 l&
#59
b110001000 %
b110001 ($
b110001 l&
#60
b110010000 %
b110010 ($
b110010 l&
#61
b110011000 %
b110011 ($
b110011 l&
#62
b110100000 %
b110100 ($
b110100 l&
#63
b110101000 %
b110101 ($
b110101 l&
#64
b110110000 %
b110110 ($
b110110 l&
#65
b110111000 %
b110111 ($
b110111 l&
#66
b111000000 %
b111000 ($
b111000 l&
#67
b111001000 %
b111001 ($
b111001 l&
#68
b111010000 %
b111010 ($
b111010 l&
#69
b111011000 %
b111011 ($
b111011 l&
#70
b111100000 %
b111100 ($
b111100 l&
#71
b111101000 %
b111101 ($
b111101 l&
#72
b111110000 %
b111110 ($
b111110 l&
#73
b111111000 %
b111111 ($
b111111 l&
#74
b1000000000 %
b1000000 ($
b1000000 l&
#75
b1000001000 %
b1000001 ($
b1000001 l&
#76
b1000010000 %
b1000010 ($
b1000010 l&
#77
b1000011000 %
b1000011 ($
b1000011 l&
#78
b1000100000 %
b1000100 ($
b1000100 l&
#79
b1000101000 %
b1000101 ($
b1000101 l&
#80
b1000110000 %
b1000110 ($
b1000110 l&
#81
b1000111000 %
b1000111 ($
b1000111 l&
#82
b1001000000 %
b1001000 ($
b1001000 l&
#83
b1001001000 %
b1001001 ($
b1001001 l&
#84
b1001010000 %
b1001010 ($
b1001010 l&
#85
b1001011000 %
b1001011 ($
b1001011 l&
#86
b1001100000 %
b1001100 ($
b1001100 l&
#87
b1001101000 %
b1001101 ($
b1001101 l&
#88
b1001110000 %
b1001110 ($
b1001110 l&
#89
b1001111000 %
b1001111 ($
b1001111 l&
#90
b1010000000 %
b1010000 ($
b1010000 l&
#91
b1010001000 %
b1010001 ($
b1010001 l&
#92
b1010010000 %
b1010010 ($
b1010010 l&
#93
b1010011000 %
b1010011 ($
b1010011 l&
#94
b1010100000 %
b1010100 ($
b1010100 l&
#95
b1010101000 %
b1010101 ($
b1010101 l&
#96
b1010110000 %
b1010110 ($
b1010110 l&
#97
b1010111000 %
b1010111 ($
b1010111 l&
#98
b1011000000 %
b1011000 ($
b1011000 l&
#99
b1011001000 %
b1011001 ($
b1011001 l&
#100
b1011010000 %
b1011010 ($
b1011010 l&
#101
b1011011000 %
b1011011 ($
b1011011 l&
#102
b1011100000 %
b1011100 ($
b1011100 l&
#103
b1011101000 %
b1011101 ($
b1011101 l&
#104
b1011110000 %
b1011110 ($
b1011110 l&
#105
b1011111000 %
b1011111 ($
b1011111 l&
#106
b1100000000 %
b1100000 ($
b1100000 l&
#107
b1100001000 %
b1100001 ($
b1100001 l&
#108
b1100010000 %
b1100010 ($
b1100010 l&
#109
b1100011000 %
b1100011 ($
b1100011 l&
#110
b1100100000 %
b1100100 ($
b1100100 l&
#111
b1100101000 %
b1100101 ($
b1100101 l&
#112
b1100110000 %
b1100110 ($
b1100110 l&
#113
b1100111000 %
b1100111 ($
b1100111 l&
#114
b1101000000 %
b1101000 ($
b1101000 l&
#115
b1101001000 %
b1101001 ($
b1101001 l&
#116
b1101010000 %
b1101010 ($
b1101010 l&
#117
b1101011000 %
b1101011 ($
b1101011 l&
#118
b1101100000 %
b1101100 ($
b1101100 l&
#119
b1101101000 %
b1101101 ($
b1101101 l&
#120
b1101110000 %
b1101110 ($
b1101110 l&
#121
b1101111000 %
b1101111 ($
b1101111 l&
#122
b1110000000 %
b1110000 ($
b1110000 l&
#123
b1110001000 %
b1110001 ($
b1110001 l&
#124
b1110010000 %
b1110010 ($
b1110010 l&
#125
b1110011000 %
b1110011 ($
b1110011 l&
#126
b1110100000 %
b1110100 ($
b1110100 l&
#127
b1110101000 %
b1110101 ($
b1110101 l&
#128
b1110110000 %
b1110110 ($
b1110110 l&
#129
b1110111000 %
b1110111 ($
b1110111 l&
#130
b1111000000 %
b1111000 ($
b1111000 l&
#131
b1111001000 %
b1111001 ($
b1111001 l&
#132
b1111010000 %
b1111010 ($
b1111010 l&
#133
b1111011000 %
b1111011 ($
b1111011 l&
#134
b1111100000 %
b1111100 ($
b1111100 l&
#135
b1111101000 %
b1111101 ($
b1111101 l&
#136
b1111110000 %
b1111110 ($
b1111110 l&
#137
b1111111000 %
b1111111 ($
b1111111 l&
#138
b10000000000 %
b10000000 ($
b10000000 l&
#139
b10000001000 %
b10000001 ($
b10000001 l&
#140
b10000010000 %
b10000010 ($
b10000010 l&
#141
b10000011000 %
b10000011 ($
b10000011 l&
#142
b10000100000 %
b10000100 ($
b10000100 l&
#143
b10000101000 %
b10000101 ($
b10000101 l&
0z&
0|&
#152
1z&
1|&
#153
b10000110000 %
b10000110 ($
b10000110 l&
0z&
0|&
#158
1z&
1|&
#159
b10000111000 %
b10000111 ($
b10000111 l&
#160
b10001000000 %
b10001000 ($
b10001000 l&
#161
b10001001000 %
b10001001 ($
b10001001 l&
#162
b10001010000 %
b10001010 ($
b10001010 l&
#163
b10001011000 %
b10001011 ($
b10001011 l&
#164
b10001100000 %
b10001100 ($
b10001100 l&
#165
b10001101000 %
b10001101 ($
b10001101 l&
#166
b10001110000 %
b10001110 ($
b10001110 l&
#167
b10001111000 %
b10001111 ($
b10001111 l&
#168
b10010000000 %
b10010000 ($
b10010000 l&
#169
b10010001000 %
b10010001 ($
b10010001 l&
#170
b10010010000 %
b10010010 ($
b10010010 l&
#171
b10010011000 %
b10010011 ($
b10010011 l&
#172
b10010100000 %
b10010100 ($
b10010100 l&
0z&
0|&
#174
1z&
1|&
#175
b10010101000 %
b10010101 ($
b10010101 l&
#176
b10010110000 %
b10010110 ($
b10010110 l&
0z&
0|&
#180
1z&
1|&
#181
b10010111000 %
b10010111 ($
b10010111 l&
#182
b10011000000 %
b10011000 ($
b10011000 l&
0z&
0|&
#184
1z&
1|&
#185
b10011001000 %
b10011001 ($
b10011001 l&
#186
b10011010000 %
b10011010 ($
b10011010 l&
#187
b10011011000 %
b10011011 ($
b10011011 l&
#188
b10011100000 %
b10011100 ($
b10011100 l&
#189
b10011101000 %
b10011101 ($
b10011101 l&
#190
b10011110000 %
b10011110 ($
b10011110 l&
#191
b10011111000 %
b10011111 ($
b10011111 l&
#192
b10100000000 %
b10100000 ($
b10100000 l&
#193
b10100001000 %
b10100001 ($
b10100001 l&
#194
b10100010000 %
b10100010 ($
b10100010 l&
#195
b10100011000 %
b10100011 ($
b10100011 l&
#196
b10100100000 %
b10100100 ($
b10100100 l&
#197
b10100101000 %
b10100101 ($
b10100101 l&
#198
b10100110000 %
b10100110 ($
b10100110 l&
#199
b10100111000 %
b10100111 ($
b10100111 l&
#200
b10101000000 %
b10101000 ($
b10101000 l&
#201
b10101001000 %
b10101001 ($
b10101001 l&
#202
b10101010000 %
b10101010 ($
b10101010 l&
#203
b10101011000 %
b10101011 ($
b10101011 l&
#204
b10101100000 %
b10101100 ($
b10101100 l&
#205
b10101101000 %
b10101101 ($
b10101101 l&
#206
b10101110000 %
b10101110 ($
b10101110 l&
#207
b10101111000 %
b10101111 ($
b10101111 l&
#208
b10110000000 %
b10110000 ($
b10110000 l&
#209
b10110001000 %
b10110001 ($
b10110001 l&
#210
b10110010000 %
b10110010 ($
b10110010 l&
#211
b10110011000 %
b10110011 ($
b10110011 l&
#212
b10110100000 %
b10110100 ($
b10110100 l&
#213
b10110101000 %
b10110101 ($
b10110101 l&
#214
b10110110000 %
b10110110 ($
b10110110 l&
#215
b10110111000 %
b10110111 ($
b10110111 l&
#216
b10111000000 %
b10111000 ($
b10111000 l&
#217
b10111001000 %
b10111001 ($
b10111001 l&
#218
b10111010000 %
b10111010 ($
b10111010 l&
#219
b10111011000 %
b10111011 ($
b10111011 l&
#220
b10111100000 %
b10111100 ($
b10111100 l&
#221
b10111101000 %
b10111101 ($
b10111101 l&
#222
b10111110000 %
b10111110 ($
b10111110 l&
#223
b10111111000 %
b10111111 ($
b10111111 l&
#224
b11000000000 %
b11000000 ($
b11000000 l&
#225
b11000001000 %
b11000001 ($
b11000001 l&
#226
b11000010000 %
b11000010 ($
b11000010 l&
#227
b11000011000 %
b11000011 ($
b11000011 l&
#228
b11000100000 %
b11000100 ($
b11000100 l&
#229
b11000101000 %
b11000101 ($
b11000101 l&
#230
b11000110000 %
b11000110 ($
b11000110 l&
#231
b11000111000 %
b11000111 ($
b11000111 l&
#232
b11001000000 %
b11001000 ($
b11001000 l&
#233
b11001001000 %
b11001001 ($
b11001001 l&
#234
b11001010000 %
b11001010 ($
b11001010 l&
#235
b11001011000 %
b11001011 ($
b11001011 l&
#236
b11001100000 %
b11001100 ($
b11001100 l&
#237
b11001101000 %
b11001101 ($
b11001101 l&
#238
b11001110000 %
b11001110 ($
b11001110 l&
#239
b11001111000 %
b11001111 ($
b11001111 l&
#240
b11010000000 %
b11010000 ($
b11010000 l&
#241
b11010001000 %
b11010001 ($
b11010001 l&
#242
b11010010000 %
b11010010 ($
b11010010 l&
#243
b11010011000 %
b11010011 ($
b11010011 l&
#244
b11010100000 %
b11010100 ($
b11010100 l&
#245
b11010101000 %
b11010101 ($
b11010101 l&
#246
b11010110000 %
b11010110 ($
b11010110 l&
#247
b11010111000 %
b11010111 ($
b11010111 l&
#248
b11011000000 %
b11011000 ($
b11011000 l&
#249
b11011001000 %
b11011001 ($
b11011001 l&
#250
b11011010000 %
b11011010 ($
b11011010 l&
#251
b11011011000 %
b11011011 ($
b11011011 l&
#252
b11011100000 %
b11011100 ($
b11011100 l&
#253
b11011101000 %
b11011101 ($
b11011101 l&
#254
b11011110000 %
b11011110 ($
b11011110 l&
#255
b11011111000 %
b11011111 ($
b11011111 l&
#256
b11100000000 %
b11100000 ($
b11100000 l&
#257
b11100001000 %
b11100001 ($
b11100001 l&
#258
b11100010000 %
b11100010 ($
b11100010 l&
#259
b11100011000 %
b11100011 ($
b11100011 l&
#260
b11100100000 %
b11100100 ($
b11100100 l&
#261
b11100101000 %
b11100101 ($
b11100101 l&
#262
b11100110000 %
b11100110 ($
b11100110 l&
#263
b11100111000 %
b11100111 ($
b11100111 l&
#264
b11101000000 %
b11101000 ($
b11101000 l&
#265
b11101001000 %
b11101001 ($
b11101001 l&
#266
b11101010000 %
b11101010 ($
b11101010 l&
#267
b11101011000 %
b11101011 ($
b11101011 l&
#268
b11101100000 %
b11101100 ($
b11101100 l&
#269
b11101101000 %
b11101101 ($
b11101101 l&
#270
b11101110000 %
b11101110 ($
b11101110 l&
#271
b11101111000 %
b11101111 ($
b11101111 l&
#272
b11110000000 %
b11110000 ($
b11110000 l&
#273
b11110001000 %
b11110001 ($
b11110001 l&
#274
b11110010000 %
b11110010 ($
b11110010 l&
#275
b11110011000 %
b11110011 ($
b11110011 l&
#276
b11110100000 %
b11110100 ($
b11110100 l&
#277
b11110101000 %
b11110101 ($
b11110101 l&
#278
b11110110000 %
b11110110 ($
b11110110 l&
#279
b11110111000 %
b11110111 ($
b11110111 l&
#280
b11111000000 %
b11111000 ($
b11111000 l&
#281
b11111001000 %
b11111001 ($
b11111001 l&
#282
b11111010000 %
b11111010 ($
b11111010 l&
#283
b11111011000 %
b11111011 ($
b11111011 l&
#284
b11111100000 %
b11111100 ($
b11111100 l&
#285
b11111101000 %
b11111101 ($
b11111101 l&
#286
b11111110000 %
b11111110 ($
b11111110 l&
#287
b11111111000 %
b11111111 ($
b11111111 l&
#288
b100000000000 %
b100000000 ($
b100000000 l&
#289
b100000001000 %
b100000001 ($
b100000001 l&
#290
b100000010000 %
b100000010 ($
b100000010 l&
#291
b100000011000 %
b100000011 ($
b100000011 l&
#292
b100000100000 %
b100000100 ($
b100000100 l&
#293
b100000101000 %
b100000101 ($
b100000101 l&
0z&
0|&
#302
1z&
1|&
#303
b100000110000 %
b100000110 ($
b100000110 l&
0z&
0|&
#308
1z&
1|&
#309
b100000111000 %
b100000111 ($
b100000111 l&
#310
b100001000000 %
b100001000 ($
b100001000 l&
#311
b100001001000 %
b100001001 ($
b100001001 l&
#312
b100001010000 %
b100001010 ($
b100001010 l&
#313
b100001011000 %
b100001011 ($
b100001011 l&
#314
b100001100000 %
b100001100 ($
b100001100 l&
#315
b100001101000 %
b100001101 ($
b100001101 l&
#316
b100001110000 %
b100001110 ($
b100001110 l&
#317
b100001111000 %
b100001111 ($
b100001111 l&
#318
b100010000000 %
b100010000 ($
b100010000 l&
#319
b100010001000 %
b100010001 ($
b100010001 l&
#320
b100010010000 %
b100010010 ($
b100010010 l&
#321
b100010011000 %
b100010011 ($
b100010011 l&
#322
b100010100000 %
b100010100 ($
b100010100 l&
#323
b100010101000 %
b100010101 ($
b100010101 l&
#324
b100010110000 %
b100010110 ($
b100010110 l&
#325
b100010111000 %
b100010111 ($
b100010111 l&
#326
b100011000000 %
b100011000 ($
b100011000 l&
#327
b100011001000 %
b100011001 ($
b100011001 l&
#328
b100011010000 %
b100011010 ($
b100011010 l&
#329
b100011011000 %
b100011011 ($
b100011011 l&
#330
b100011100000 %
b100011100 ($
b100011100 l&
#331
b100011101000 %
b100011101 ($
b100011101 l&
#332
b100011110000 %
b100011110 ($
b100011110 l&
#333
b100011111000 %
b100011111 ($
b100011111 l&
#334
b100100000000 %
b100100000 ($
b100100000 l&
#335
b100100001000 %
b100100001 ($
b100100001 l&
#336
b100100010000 %
b100100010 ($
b100100010 l&
#337
b100100011000 %
b100100011 ($
b100100011 l&
#338
b100100100000 %
b100100100 ($
b100100100 l&
#339
b100100101000 %
b100100101 ($
b100100101 l&
#340
b100100110000 %
b100100110 ($
b100100110 l&
#341
b100100111000 %
b100100111 ($
b100100111 l&
#342
b100101000000 %
b100101000 ($
b100101000 l&
#343
b100101001000 %
b100101001 ($
b100101001 l&
#344
b100101010000 %
b100101010 ($
b100101010 l&
#345
b100101011000 %
b100101011 ($
b100101011 l&
#346
b100101100000 %
b100101100 ($
b100101100 l&
#347
b100101101000 %
b100101101 ($
b100101101 l&
#348
b100101110000 %
b100101110 ($
b100101110 l&
#349
b100101111000 %
b100101111 ($
b100101111 l&
#350
b100110000000 %
b100110000 ($
b100110000 l&
#351
b100110001000 %
b100110001 ($
b100110001 l&
#352
b100110010000 %
b100110010 ($
b100110010 l&
#353
b100110011000 %
b100110011 ($
b100110011 l&
#354
b100110100000 %
b100110100 ($
b100110100 l&
#355
b100110101000 %
b100110101 ($
b100110101 l&
#356
b100110110000 %
b100110110 ($
b100110110 l&
#357
b100110111000 %
b100110111 ($
b100110111 l&
#358
b100111000000 %
b100111000 ($
b100111000 l&
#359
b100111001000 %
b100111001 ($
b100111001 l&
#360
b100111010000 %
b100111010 ($
b100111010 l&
#361
b100111011000 %
b100111011 ($
b100111011 l&
#362
b100111100000 %
b100111100 ($
b100111100 l&
#363
b100111101000 %
b100111101 ($
b100111101 l&
#364
b100111110000 %
b100111110 ($
b100111110 l&
#365
b100111111000 %
b100111111 ($
b100111111 l&
#366
b101000000000 %
b101000000 ($
b101000000 l&
#367
b101000001000 %
b101000001 ($
b101000001 l&
#368
b101000010000 %
b101000010 ($
b101000010 l&
#369
b101000011000 %
b101000011 ($
b101000011 l&
#370
b101000100000 %
b101000100 ($
b101000100 l&
#371
b101000101000 %
b101000101 ($
b101000101 l&
#372
b101000110000 %
b101000110 ($
b101000110 l&
0z&
0|&
#374
1z&
1|&
#375
b101000111000 %
b101000111 ($
b101000111 l&
#376
b101001000000 %
b101001000 ($
b101001000 l&
0z&
0|&
#380
1z&
1|&
#381
b101001001000 %
b101001001 ($
b101001001 l&
#382
b101001010000 %
b101001010 ($
b101001010 l&
0z&
0|&
#384
1z&
1|&
#385
b101001011000 %
b101001011 ($
b101001011 l&
#386
b101001100000 %
b101001100 ($
b101001100 l&
#387
b101001101000 %
b101001101 ($
b101001101 l&
#388
b101001110000 %
b101001110 ($
b101001110 l&
#389
b101001111000 %
b101001111 ($
b101001111 l&
#390
b101010000000 %
b101010000 ($
b101010000 l&
#391
b101010001000 %
b101010001 ($
b101010001 l&
#392
b101010010000 %
b101010010 ($
b101010010 l&
#393
b101010011000 %
b101010011 ($
b101010011 l&
#394
b101010100000 %
b101010100 ($
b101010100 l&
#395
b101010101000 %
b101010101 ($
b101010101 l&
#396
b101010110000 %
b101010110 ($
b101010110 l&
#397
b101010111000 %
b101010111 ($
b101010111 l&
#398
b101011000000 %
b101011000 ($
b101011000 l&
#399
b101011001000 %
b101011001 ($
b101011001 l&
#400
b101011010000 %
b101011010 ($
b101011010 l&
#401
b101011011000 %
b101011011 ($
b101011011 l&
#402
b101011100000 %
b101011100 ($
b101011100 l&
#403
b101011101000 %
b101011101 ($
b101011101 l&
#404
b101011110000 %
b101011110 ($
b101011110 l&
#405
b101011111000 %
b101011111 ($
b101011111 l&
#406
b101100000000 %
b101100000 ($
b101100000 l&
#407
b101100001000 %
b101100001 ($
b101100001 l&
#408
b101100010000 %
b101100010 ($
b101100010 l&
#409
b101100011000 %
b101100011 ($
b101100011 l&
#410
b101100100000 %
b101100100 ($
b101100100 l&
#411
b101100101000 %
b101100101 ($
b101100101 l&
#412
b101100110000 %
b101100110 ($
b101100110 l&
#413
b101100111000 %
b101100111 ($
b101100111 l&
#414
b101101000000 %
b101101000 ($
b101101000 l&
#415
b101101001000 %
b101101001 ($
b101101001 l&
#416
b101101010000 %
b101101010 ($
b101101010 l&
#417
b101101011000 %
b101101011 ($
b101101011 l&
#418
b101101100000 %
b101101100 ($
b101101100 l&
#419
b101101101000 %
b101101101 ($
b101101101 l&
#420
b101101110000 %
b101101110 ($
b101101110 l&
#421
b101101111000 %
b101101111 ($
b101101111 l&
#422
b101110000000 %
b101110000 ($
b101110000 l&
#423
b101110001000 %
b101110001 ($
b101110001 l&
#424
b101110010000 %
b101110010 ($
b101110010 l&
#425
b101110011000 %
b101110011 ($
b101110011 l&
#426
b101110100000 %
b101110100 ($
b101110100 l&
#427
b101110101000 %
b101110101 ($
b101110101 l&
#428
b101110110000 %
b101110110 ($
b101110110 l&
#429
b101110111000 %
b101110111 ($
b101110111 l&
#430
b101111000000 %
b101111000 ($
b101111000 l&
#431
b101111001000 %
b101111001 ($
b101111001 l&
#432
b101111010000 %
b101111010 ($
b101111010 l&
#433
b101111011000 %
b101111011 ($
b101111011 l&
#434
b101111100000 %
b101111100 ($
b101111100 l&
#435
b101111101000 %
b101111101 ($
b101111101 l&
#436
b101111110000 %
b101111110 ($
b101111110 l&
#437
b101111111000 %
b101111111 ($
b101111111 l&
#438
b110000000000 %
b110000000 ($
b110000000 l&
#439
b110000001000 %
b110000001 ($
b110000001 l&
#440
b110000010000 %
b110000010 ($
b110000010 l&
#441
b110000011000 %
b110000011 ($
b110000011 l&
#442
b110000100000 %
b110000100 ($
b110000100 l&
#443
b110000101000 %
b110000101 ($
b110000101 l&
0z&
0|&
#452
1z&
1|&
#453
b110000110000 %
b110000110 ($
b110000110 l&
0z&
0|&
#458
1z&
1|&
#459
b110000111000 %
b110000111 ($
b110000111 l&
#460
b110001000000 %
b110001000 ($
b110001000 l&
#461
b110001001000 %
b110001001 ($
b110001001 l&
#462
b110001010000 %
b110001010 ($
b110001010 l&
#463
b110001011000 %
b110001011 ($
b110001011 l&
#464
b110001100000 %
b110001100 ($
b110001100 l&
#465
b110001101000 %
b110001101 ($
b110001101 l&
#466
b110001110000 %
b110001110 ($
b110001110 l&
#467
b110001111000 %
b110001111 ($
b110001111 l&
#468
b110010000000 %
b110010000 ($
b110010000 l&
#469
b110010001000 %
b110010001 ($
b110010001 l&
#470
b110010010000 %
b110010010 ($
b110010010 l&
#471
b110010011000 %
b110010011 ($
b110010011 l&
#472
b110010100000 %
b110010100 ($
b110010100 l&
#473
b110010101000 %
b110010101 ($
b110010101 l&
#474
b110010110000 %
b110010110 ($
b110010110 l&
#475
b110010111000 %
b110010111 ($
b110010111 l&
#476
b110011000000 %
b110011000 ($
b110011000 l&
#477
b110011001000 %
b110011001 ($
b110011001 l&
#478
b110011010000 %
b110011010 ($
b110011010 l&
#479
b110011011000 %
b110011011 ($
b110011011 l&
#480
b110011100000 %
b110011100 ($
b110011100 l&
#481
b110011101000 %
b110011101 ($
b110011101 l&
#482
b110011110000 %
b110011110 ($
b110011110 l&
#483
b110011111000 %
b110011111 ($
b110011111 l&
#484
b110100000000 %
b110100000 ($
b110100000 l&
#485
b110100001000 %
b110100001 ($
b110100001 l&
#486
b110100010000 %
b110100010 ($
b110100010 l&
#487
b110100011000 %
b110100011 ($
b110100011 l&
#488
b110100100000 %
b110100100 ($
b110100100 l&
#489
b110100101000 %
b110100101 ($
b110100101 l&
#490
b110100110000 %
b110100110 ($
b110100110 l&
#491
b110100111000 %
b110100111 ($
b110100111 l&
#492
b110101000000 %
b110101000 ($
b110101000 l&
#493
b110101001000 %
b110101001 ($
b110101001 l&
#494
b110101010000 %
b110101010 ($
b110101010 l&
#495
b110101011000 %
b110101011 ($
b110101011 l&
#496
b110101100000 %
b110101100 ($
b110101100 l&
#497
b110101101000 %
b110101101 ($
b110101101 l&
#498
b110101110000 %
b110101110 ($
b110101110 l&
#499
b110101111000 %
b110101111 ($
b110101111 l&
#500
b110110000000 %
b110110000 ($
b110110000 l&
#501
b110110001000 %
b110110001 ($
b110110001 l&
#502
b110110010000 %
b110110010 ($
b110110010 l&
#503
b110110011000 %
b110110011 ($
b110110011 l&
#504
b110110100000 %
b110110100 ($
b110110100 l&
#505
b110110101000 %
b110110101 ($
b110110101 l&
#506
b110110110000 %
b110110110 ($
b110110110 l&
#507
b110110111000 %
b110110111 ($
b110110111 l&
#508
b110111000000 %
b110111000 ($
b110111000 l&
#509
b110111001000 %
b110111001 ($
b110111001 l&
#510
b110111010000 %
b110111010 ($
b110111010 l&
#511
b110111011000 %
b110111011 ($
b110111011 l&
#512
b110111100000 %
b110111100 ($
b110111100 l&
#513
b110111101000 %
b110111101 ($
b110111101 l&
#514
b110111110000 %
b110111110 ($
b110111110 l&
#515
b110111111000 %
b110111111 ($
b110111111 l&
#516
b111000000000 %
b111000000 ($
b111000000 l&
#517
b111000001000 %
b111000001 ($
b111000001 l&
#518
b111000010000 %
b111000010 ($
b111000010 l&
#519
b111000011000 %
b111000011 ($
b111000011 l&
#520
b111000100000 %
b111000100 ($
b111000100 l&
#521
b111000101000 %
b111000101 ($
b111000101 l&
#522
b111000110000 %
b111000110 ($
b111000110 l&
#523
b111000111000 %
b111000111 ($
b111000111 l&
#524
b111001000000 %
b111001000 ($
b111001000 l&
#525
b111001001000 %
b111001001 ($
b111001001 l&
#526
b111001010000 %
b111001010 ($
b111001010 l&
#527
b111001011000 %
b111001011 ($
b111001011 l&
#528
b111001100000 %
b111001100 ($
b111001100 l&
#529
b111001101000 %
b111001101 ($
b111001101 l&
#530
b111001110000 %
b111001110 ($
b111001110 l&
#531
b111001111000 %
b111001111 ($
b111001111 l&
#532
b111010000000 %
b111010000 ($
b111010000 l&
#533
b111010001000 %
b111010001 ($
b111010001 l&
#534
b111010010000 %
b111010010 ($
b111010010 l&
#535
b111010011000 %
b111010011 ($
b111010011 l&
#536
b111010100000 %
b111010100 ($
b111010100 l&
#537
b111010101000 %
b111010101 ($
b111010101 l&
#538
b111010110000 %
b111010110 ($
b111010110 l&
#539
b111010111000 %
b111010111 ($
b111010111 l&
#540
b111011000000 %
b111011000 ($
b111011000 l&
#541
b111011001000 %
b111011001 ($
b111011001 l&
#542
b111011010000 %
b111011010 ($
b111011010 l&
#543
b111011011000 %
b111011011 ($
b111011011 l&
#544
b111011100000 %
b111011100 ($
b111011100 l&
#545
b111011101000 %
b111011101 ($
b111011101 l&
#546
b111011110000 %
b111011110 ($
b111011110 l&
#547
b111011111000 %
b111011111 ($
b111011111 l&
#548
b111100000000 %
b111100000 ($
b111100000 l&
#549
b111100001000 %
b111100001 ($
b111100001 l&
#550
b111100010000 %
b111100010 ($
b111100010 l&
#551
b111100011000 %
b111100011 ($
b111100011 l&
#552
b111100100000 %
b111100100 ($
b111100100 l&
#553
b111100101000 %
b111100101 ($
b111100101 l&
#554
b111100110000 %
b111100110 ($
b111100110 l&
#555
b111100111000 %
b111100111 ($
b111100111 l&
#556
b111101000000 %
b111101000 ($
b111101000 l&
#557
b111101001000 %
b111101001 ($
b111101001 l&
#558
b111101010000 %
b111101010 ($
b111101010 l&
#559
b111101011000 %
b111101011 ($
b111101011 l&
#560
b111101100000 %
b111101100 ($
b111101100 l&
#561
b111101101000 %
b111101101 ($
b111101101 l&
#562
b111101110000 %
b111101110 ($
b111101110 l&
#563
b111101111000 %
b111101111 ($
b111101111 l&
#564
b111110000000 %
b111110000 ($
b111110000 l&
#565
b111110001000 %
b111110001 ($
b111110001 l&
#566
b111110010000 %
b111110010 ($
b111110010 l&
#567
b111110011000 %
b111110011 ($
b111110011 l&
#568
b111110100000 %
b111110100 ($
b111110100 l&
#569
b111110101000 %
b111110101 ($
b111110101 l&
#570
b111110110000 %
b111110110 ($
b111110110 l&
#571
b111110111000 %
b111110111 ($
b111110111 l&
#572
b111111000000 %
b111111000 ($
b111111000 l&
0z&
0|&
#574
1z&
1|&
#575
b111111001000 %
b111111001 ($
b111111001 l&
#576
b111111010000 %
b111111010 ($
b111111010 l&
0z&
0|&
#580
1z&
1|&
#581
b111111011000 %
b111111011 ($
b111111011 l&
#582
b111111100000 %
b111111100 ($
b111111100 l&
0z&
0|&
#584
1z&
1|&
#585
b111111101000 %
b111111101 ($
b111111101 l&
#586
b111111110000 %
b111111110 ($
b111111110 l&
#587
b111111111000 %
b111111111 ($
b111111111 l&
#588
b1000000000000 %
b1000000000 ($
b1000000000 l&
#589
b1000000001000 %
b1000000001 ($
b1000000001 l&
#590
b1000000010000 %
b1000000010 ($
b1000000010 l&
#591
b1000000011000 %
b1000000011 ($
b1000000011 l&
#592
b1000000100000 %
b1000000100 ($
b1000000100 l&
#593
b1000000101000 %
b1000000101 ($
b1000000101 l&
0z&
0|&
#602
1z&
1|&
#603
b1000000110000 %
b1000000110 ($
b1000000110 l&
0z&
0|&
#608
1z&
1|&
#609
b1000000111000 %
b1000000111 ($
b1000000111 l&
#610
b1000001000000 %
b1000001000 ($
b1000001000 l&
