fmc_imput2/my_ddr_to_vga/.Xil/Vivado-12192-DESKTOP-NM2AVR9/hw_ila_data_1/zip_work/waveform.vcd
$date
        2019-Sep-24 13:37:16
$end
$version
        Vivado v2018.3 (64-bit)
$end
$timescale
        1ps
$end
$scope module dut $end
$var reg 3 " u_ila_0_current_state [2:0] $end
$var reg 21 % u_ila_0_rd_burst_data_counter [20:0] $end
$var reg 21 : u_ila_0_wr_burst_addr_counter [20:0] $end
$var reg 2 O u_ila_0_app_addr [1:0] $end
$var reg 26 Q ddr3_top/app_addr [27:2] $end
$var reg 1 k u_ila_0_app_addr $end
$var reg 1 l ddr3_top/app_cmd_1 $end
$var reg 2 m ddr3_top/app_cmd [2:1] $end
$var reg 256 o ddr3_top/app_rd_data [255:0] $end
$var reg 256 U$ ddr3_top/app_wdf_data [255:0] $end
$var reg 21 ;' u_ila_0_rd_burst_addr_counter [20:0] $end
$var reg 17 P' sd_read/u_sd_read_photo/rd_sec_cnt [16:0] $end
$var reg 2 a' sd_read/u_sd_read_photo/rd_flow_cnt [1:0] $end
$var reg 16 c' sd_read/sd_rd_val_data [15:0] $end
$var reg 256 s' sd_read/data [255:0] $end
$var reg 1 Y* ddr3_top/app_en $end
$var reg 1 Z* ddr3_top/app_rd_data_valid $end
$var reg 1 [* u_ila_0_app_rdy $end
$var reg 1 \* ddr3_top/app_wdf_rdy $end
$var reg 1 ]* ddr3_top/app_wdf_wren $end
$var reg 1 ^* sd_read/out_valid $end
$var reg 1 _* sd_fifo_empty $end
$var reg 1 `* sd_fifo_full $end
$var reg 1 a* sd_read/sd_rd_val_en $end
$var reg 1 b* ddr3_top/wr_burst_finish $end
$var reg 1 c* u_ila_0_wr_burst_req $end
$var reg 1 d* _TRIGGER $end
$var reg 1 e* _WINDOW $end
$var reg 1 f* _GAP $end
$upscope $end
$enddefinitions $end
#0
$dumpvars
b100 "
b0 %
b1111111111111011 :
b0 O
b11111111111110110 Q
0k
0l
b0 m
b0 o
b1111001001011100111100000101110011101110010111001110110001011100111010100101110011101000010111001110011001011100111001000101110011100010010111001110000001011100110111100101110011011100010111001101101001011100110110000101110011010110010111001101010001011100 U$
b0 ;'
b111111111111 P'
b1 a'
b1101001001011100 c'
b1111000001011100111011100101110011101100010111001110101001011100111010000101110011100110010111001110010001011100111000100101110011100000010111001101111001011100110111000101110011011010010111001101100001011100110101100101110011010100010111001101001001011100 s'
1Y*
0Z*
1[*
1\*
0]*
0^*
1_*
0`*
0a*
0b*
1c*
0d*
1e*
0f*
$end
#11
0[*
#13
1[*
#14
b1101000001011100 c'
1a*
#15
0[*
#18
b1110111001011100111011000101110011101010010111001110100001011100111001100101110011100100010111001110001001011100111000000101110011011110010111001101110001011100110110100101110011011000010111001101011001011100110101000101110011010010010111001101000001011100 s'
#19
1[*
0a*
#21
0[*
#23
1[*
#54
0[*
#63
1[*
#64
0[*
#78
b1100111001011100 c'
1a*
#82
b1110110001011100111010100101110011101000010111001110011001011100111001000101110011100010010111001110000001011100110111100101110011011100010111001101101001011100110110000101110011010110010111001101010001011100110100100101110011010000010111001100111001011100 s'
#83
0a*
#121
1[*
#142
b1100110001011100 c'
1a*
#146
b1110101001011100111010000101110011100110010111001110010001011100111000100101110011100000010111001101111001011100110111000101110011011010010111001101100001011100110101100101110011010100010111001101001001011100110100000101110011001110010111001100110001011100 s'
#147
0a*
#206
b1100101001011100 c'
1a*
#210
b1110100001011100111001100101110011100100010111001110001001011100111000000101110011011110010111001101110001011100110110100101110011011000010111001101011001011100110101000101110011010010010111001101000001011100110011100101110011001100010111001100101001011100 s'
#211
0[*
0a*
#213
1[*
#215
0[*
#219
1[*
#221
0[*
#223
1[*
#270
b1100100001011100 c'
1a*
#274
b1110011001011100111001000101110011100010010111001110000001011100110111100101110011011100010111001101101001011100110110000101110011010110010111001101010001011100110100100101110011010000010111001100111001011100110011000101110011001010010111001100100001011100 s'
#275
0a*
#334
b1100011001011100 c'
1a*
#338
b1110010001011100111000100101110011100000010111001101111001011100110111000101110011011010010111001101100001011100110101100101110011010100010111001101001001011100110100000101110011001110010111001100110001011100110010100101110011001000010111001100011001011100 s'
#339
0a*
#398
b1100010001011100 c'
1a*
#402
b1110001001011100111000000101110011011110010111001101110001011100110110100101110011011000010111001101011001011100110101000101110011010010010111001101000001011100110011100101110011001100010111001100101001011100110010000101110011000110010111001100010001011100 s'
#403
0a*
#411
0[*
#413
1[*
#415
0[*
#419
1[*
#421
0[*
#423
1[*
#462
b1100001001011100 c'
1a*
#466
b1110000001011100110111100101110011011100010111001101101001011100110110000101110011010110010111001101010001011100110100100101110011010000010111001100111001011100110011000101110011001010010111001100100001011100110001100101110011000100010111001100001001011100 s'
#467
0a*
#526
b1100000001011100 c'
1a*
#530
b1101111001011100110111000101110011011010010111001101100001011100110101100101110011010100010111001101001001011100110100000101110011001110010111001100110001011100110010100101110011001000010111001100011001011100110001000101110011000010010111001100000001011100 s'
#531
0a*
#590
b1011111001011100 c'
1a*
#594
b1101110001011100110110100101110011011000010111001101011001011100110101000101110011010010010111001101000001011100110011100101110011001100010111001100101001011100110010000101110011000110010111001100010001011100110000100101110011000000010111001011111001011100 s'
#595
0a*
#611
0[*
#613
1[*
#615
0[*
#619
1[*
#621
0[*
#623
1[*
#654
b1011110001011100 c'
1a*
#658
b1101101001011100110110000101110011010110010111001101010001011100110100100101110011010000010111001100111001011100110011000101110011001010010111001100100001011100110001100101110011000100010111001100001001011100110000000101110010111110010111001011110001011100 s'
#659
0a*
#718
b1011101001011100 c'
1a*
#722
b1101100001011100110101100101110011010100010111001101001001011100110100000101110011001110010111001100110001011100110010100101110011001000010111001100011001011100110001000101110011000010010111001100000001011100101111100101110010111100010111001011101001011100 s'
#723
0a*
#782
b1011100001011100 c'
1a*
#786
b1101011001011100110101000101110011010010010111001101000001011100110011100101110011001100010111001100101001011100110010000101110011000110010111001100010001011100110000100101110011000000010111001011111001011100101111000101110010111010010111001011100001011100 s'
#787
0a*
#811
0[*
#813
1[*
#815
0[*
#819
1[*
#821
0[*
#823
1[*
#846
b1011011001011100 c'
1a*
#850
b1101010001011100110100100101110011010000010111001100111001011100110011000101110011001010010111001100100001011100110001100101110011000100010111001100001001011100110000000101110010111110010111001011110001011100101110100101110010111000010111001011011001011100 s'
#851
0a*
#910
b1011010001011100 c'
1a*
#914
b1101001001011100110100000101110011001110010111001100110001011100110010100101110011001000010111001100011001011100110001000101110011000010010111001100000001011100101111100101110010111100010111001011101001011100101110000101110010110110010111001011010001011100 s'
1^*
#915
0a*
#918
0^*
#926
0_*
#927
b1101001001011100110100000101110011001110010111001100110001011100110010100101110011001000010111001100011001011100110001000101110011000010010111001100000001011100101111100101110010111100010111001011101001011100101110000101110010110110010111001011010001011100 U$
1]*
1_*
#928
b1111111111111100 :
b11111111111111000 Q
0]*
#974
b1011001001011100 c'
1a*
#978
b1101000001011100110011100101110011001100010111001100101001011100110010000101110011000110010111001100010001011100110000100101110011000000010111001011111001011100101111000101110010111010010111001011100001011100101101100101110010110100010111001011001001011100 s'
#979
0a*
#1011
0[*
#1013
1[*
#1015
0[*
#1019
1[*
#1021
0[*
#1023
1[*
#1038
b1011000001011100 c'
1a*
#1042
b1100111001011100110011000101110011001010010111001100100001011100110001100101110011000100010111001100001001011100110000000101110010111110010111001011110001011100101110100101110010111000010111001011011001011100101101000101110010110010010111001011000001011100 s'
#1043
0a*
#1102
b1010111001011100 c'
1a*
#1106
b1100110001011100110010100101110011001000010111001100011001011100110001000101110011000010010111001100000001011100101111100101110010111100010111001011101001011100101110000101110010110110010111001011010001011100101100100101110010110000010111001010111001011100 s'
#1107
0a*
#1166
b1010110001011100 c'
1a*
#1170
b1100101001011100110010000101110011000110010111001100010001011100110000100101110011000000010111001011111001011100101111000101110010111010010111001011100001011100101101100101110010110100010111001011001001011100101100000101110010101110010111001010110001011100 s'
#1171
0a*
#1211
0[*
#1213
1[*
#1215
0[*
#1219
1[*
#1221
0[*
#1223
1[*
#1230
b1010101001011100 c'
1a*
#1234
b1100100001011100110001100101110011000100010111001100001001011100110000000101110010111110010111001011110001011100101110100101110010111000010111001011011001011100101101000101110010110010010111001011000001011100101011100101110010101100010111001010101001011100 s'
#1235
0a*
#1294
b1010100001011100 c'
1a*
#1298
b1100011001011100110001000101110011000010010111001100000001011100101111100101110010111100010111001011101001011100101110000101110010110110010111001011010001011100101100100101110010110000010111001010111001011100101011000101110010101010010111001010100001011100 s'
#1299
0a*
#1358
b1010011001011100 c'
1a*
#1362
b1100010001011100110000100101110011000000010111001011111001011100101111000101110010111010010111001011100001011100101101100101110010110100010111001011001001011100101100000101110010101110010111001010110001011100101010100101110010101000010111001010011001011100 s'
#1363
0a*
#1411
0[*
#1413
1[*
#1415
0[*
#1419
1[*
#1421
0[*
#1422
b1010010001011100 c'
1a*
#1423
1[*
#1426
b1100001001011100110000000101110010111110010111001011110001011100101110100101110010111000010111001011011001011100101101000101110010110010010111001011000001011100101011100101110010101100010111001010101001011100101010000101110010100110010111001010010001011100 s'
#1427
0a*
#1486
b1010001001011100 c'
1a*
#1490
b1100000001011100101111100101110010111100010111001011101001011100101110000101110010110110010111001011010001011100101100100101110010110000010111001010111001011100101011000101110010101010010111001010100001011100101001100101110010100100010111001010001001011100 s'
#1491
0a*
#1550
b1010000001011100 c'
1a*
#1554
b1011111001011100101111000101110010111010010111001011100001011100101101100101110010110100010111001011001001011100101100000101110010101110010111001010110001011100101010100101110010101000010111001010011001011100101001000101110010100010010111001010000001011100 s'
#1555
0a*
#1574
0[*
#1583
1[*
#1584
0[*
#1614
b1001111001011100 c'
1a*
#1618
b1011110001011100101110100101110010111000010111001011011001011100101101000101110010110010010111001011000001011100101011100101110010101100010111001010101001011100101010000101110010100110010111001010010001011100101000100101110010100000010111001001111001011100 s'
#1619
0a*
#1643
1[*
#1645
0[*
#1649
1[*
#1651
0[*
#1653
1[*
#1678
b1001110001011100 c'
1a*
#1682
b1011101001011100101110000101110010110110010111001011010001011100101100100101110010110000010111001010111001011100101011000101110010101010010111001010100001011100101001100101110010100100010111001010001001011100101000000101110010011110010111001001110001011100 s'
#1683
0a*
#1742
b1001101001011100 c'
1a*
#1746
b1011100001011100101101100101110010110100010111001011001001011100101100000101110010101110010111001010110001011100101010100101110010101000010111001010011001011100101001000101110010100010010111001010000001011100100111100101110010011100010111001001101001011100 s'
#1747
0a*
#1806
b1001100001011100 c'
1a*
#1810
b1011011001011100101101000101110010110010010111001011000001011100101011100101110010101100010111001010101001011100101010000101110010100110010111001010010001011100101000100101110010100000010111001001111001011100100111000101110010011010010111001001100001011100 s'
#1811
0a*
#1851
0[*
#1853
1[*
#1855
0[*
#1859
1[*
#1861
0[*
#1863
1[*
#1870
b1001011001011100 c'
1a*
#1874
b1011010001011100101100100101110010110000010111001010111001011100101011000101110010101010010111001010100001011100101001100101110010100100010111001010001001011100101000000101110010011110010111001001110001011100100110100101110010011000010111001001011001011100 s'
#1875
0a*
#1934
b1001010001011100 c'
1a*
#1938
b1011001001011100101100000101110010101110010111001010110001011100101010100101110010101000010111001010011001011100101001000101110010100010010111001010000001011100100111100101110010011100010111001001101001011100100110000101110010010110010111001001010001011100 s'
1^*
#1939
0a*
#1942
0^*
#1950
0_*
#1951
b1011001001011100101100000101110010101110010111001010110001011100101010100101110010101000010111001010011001011100101001000101110010100010010111001010000001011100100111100101110010011100010111001001101001011100100110000101110010010110010111001001010001011100 U$
1]*
1_*
#1952
b1111111111111101 :
b11111111111111010 Q
0]*
#1998
b1001001001011100 c'
1a*
#2002
b1011000001011100101011100101110010101100010111001010101001011100101010000101110010100110010111001010010001011100101000100101110010100000010111001001111001011100100111000101110010011010010111001001100001011100100101100101110010010100010111001001001001011100 s'
#2003
0a*
#2051
0[*
#2053
1[*
#2055
0[*
#2059
1[*
#2061
0[*
#2062
b1001000001011100 c'
1a*
#2063
1[*
#2066
b1010111001011100101011000101110010101010010111001010100001011100101001100101110010100100010111001010001001011100101000000101110010011110010111001001110001011100100110100101110010011000010111001001011001011100100101000101110010010010010111001001000001011100 s'
#2067
0a*
#2126
b1000111001011100 c'
1a*
#2130
b1010110001011100101010100101110010101000010111001010011001011100101001000101110010100010010111001010000001011100100111100101110010011100010111001001101001011100100110000101110010010110010111001001010001011100100100100101110010010000010111001000111001011100 s'
#2131
0a*
#2190
b1000110001011100 c'
1a*
#2194
b1010101001011100101010000101110010100110010111001010010001011100101000100101110010100000010111001001111001011100100111000101110010011010010111001001100001011100100101100101110010010100010111001001001001011100100100000101110010001110010111001000110001011100 s'
#2195
0a*
#2251
0[*
#2253
1[*
#2254
b1000101001011100 c'
1a*
#2255
0[*
#2258
b1010100001011100101001100101110010100100010111001010001001011100101000000101110010011110010111001001110001011100100110100101110010011000010111001001011001011100100101000101110010010010010111001001000001011100100011100101110010001100010111001000101001011100 s'
#2259
1[*
0a*
#2261
0[*
#2263
1[*
#2318
b1000100001011100 c'
1a*
#2322
b1010011001011100101001000101110010100010010111001010000001011100100111100101110010011100010111001001101001011100100110000101110010010110010111001001010001011100100100100101110010010000010111001000111001011100100011000101110010001010010111001000100001011100 s'
#2323
0a*
#2382
b1000011001011100 c'
1a*
#2386
b1010010001011100101000100101110010100000010111001001111001011100100111000101110010011010010111001001100001011100100101100101110010010100010111001001001001011100100100000101110010001110010111001000110001011100100010100101110010001000010111001000011001011100 s'
#2387
0a*
#2446
b1000010001011100 c'
1a*
#2450
b1010001001011100101000000101110010011110010111001001110001011100100110100101110010011000010111001001011001011100100101000101110010010010010111001001000001011100100011100101110010001100010111001000101001011100100010000101110010000110010111001000010001011100 s'
#2451
0[*
0a*
#2453
1[*
#2455
0[*
#2459
1[*
#2461
0[*
#2463
1[*
#2510
b1000001001011100 c'
1a*
#2514
b1010000001011100100111100101110010011100010111001001101001011100100110000101110010010110010111001001010001011100100100100101110010010000010111001000111001011100100011000101110010001010010111001000100001011100100001100101110010000100010111001000001001011100 s'
#2515
0a*
#2574
b1000000001011100 c'
1a*
#2578
b1001111001011100100111000101110010011010010111001001100001011100100101100101110010010100010111001001001001011100100100000101110010001110010111001000110001011100100010100101110010001000010111001000011001011100100001000101110010000010010111001000000001011100 s'
#2579
0a*
#2638
b111111001011100 c'
1a*
#2642
b1001110001011100100110100101110010011000010111001001011001011100100101000101110010010010010111001001000001011100100011100101110010001100010111001000101001011100100010000101110010000110010111001000010001011100100000100101110010000000010111000111111001011100 s'
#2643
0a*
#2651
0[*
#2653
1[*
#2655
0[*
#2659
1[*
#2661
0[*
#2663
1[*
#2702
b111110001011100 c'
1a*
#2706
b1001101001011100100110000101110010010110010111001001010001011100100100100101110010010000010111001000111001011100100011000101110010001010010111001000100001011100100001100101110010000100010111001000001001011100100000000101110001111110010111000111110001011100 s'
#2707
0a*
#2766
b111101001011100 c'
1a*
#2770
b1001100001011100100101100101110010010100010111001001001001011100100100000101110010001110010111001000110001011100100010100101110010001000010111001000011001011100100001000101110010000010010111001000000001011100011111100101110001111100010111000111101001011100 s'
#2771
0a*
#2830
b111100001011100 c'
1a*
#2834
b1001011001011100100101000101110010010010010111001001000001011100100011100101110010001100010111001000101001011100100010000101110010000110010111001000010001011100100000100101110010000000010111000111111001011100011111000101110001111010010111000111100001011100 s'
#2835
0a*
#2851
0[*
#2853
1[*
#2855
0[*
#2859
1[*
#2861
0[*
#2863
1[*
#2894
b111011001011100 c'
1a*
#2898
b1001010001011100100100100101110010010000010111001000111001011100100011000101110010001010010111001000100001011100100001100101110010000100010111001000001001011100100000000101110001111110010111000111110001011100011110100101110001111000010111000111011001011100 s'
#2899
0a*
#2958
b111010001011100 c'
1a*
#2962
b1001001001011100100100000101110010001110010111001000110001011100100010100101110010001000010111001000011001011100100001000101110010000010010111001000000001011100011111100101110001111100010111000111101001011100011110000101110001110110010111000111010001011100 s'
1^*
#2963
0a*
#2966
0^*
#2974
0_*
#2975
b1001001001011100100100000101110010001110010111001000110001011100100010100101110010001000010111001000011001011100100001000101110010000010010111001000000001011100011111100101110001111100010111000111101001011100011110000101110001110110010111000111010001011100 U$
1]*
1_*
#2976
b1111111111111110 :
b11111111111111100 Q
0]*
#3022
b111001001011100 c'
1a*
#3026
b1001000001011100100011100101110010001100010111001000101001011100100010000101110010000110010111001000010001011100100000100101110010000000010111000111111001011100011111000101110001111010010111000111100001011100011101100101110001110100010111000111001001011100 s'
#3027
0a*
#3051
0[*
#3053
1[*
#3055
0[*
#3059
1[*
#3061
0[*
#3063
1[*
#3086
b111000001011100 c'
1a*
#3090
b1000111001011100100011000101110010001010010111001000100001011100100001100101110010000100010111001000001001011100100000000101110001111110010111000111110001011100011110100101110001111000010111000111011001011100011101000101110001110010010111000111000001011100 s'
#3091
0a*
#3094
0[*
#3103
1[*
#3104
0[*
#3150
b110111001011100 c'
1a*
#3154
b1000110001011100100010100101110010001000010111001000011001011100100001000101110010000010010111001000000001011100011111100101110001111100010111000111101001011100011110000101110001110110010111000111010001011100011100100101110001110000010111000110111001011100 s'
#3155
0a*
#3161
1[*
#3214
b110110001011100 c'
1a*
#3218
b1000101001011100100010000101110010000110010111001000010001011100100000100101110010000000010111000111111001011100011111000101110001111010010111000111100001011100011101100101110001110100010111000111001001011100011100000101110001101110010111000110110001011100 s'
#3219
0a*
#3251
0[*
#3253
1[*
#3255
0[*
#3259
1[*
#3261
0[*
#3263
1[*
#3278
b110101001011100 c'
1a*
#3282
b1000100001011100100001100101110010000100010111001000001001011100100000000101110001111110010111000111110001011100011110100101110001111000010111000111011001011100011101000101110001110010010111000111000001011100011011100101110001101100010111000110101001011100 s'
#3283
0a*
#3342
b110100001011100 c'
1a*
#3346
b1000011001011100100001000101110010000010010111001000000001011100011111100101110001111100010111000111101001011100011110000101110001110110010111000111010001011100011100100101110001110000010111000110111001011100011011000101110001101010010111000110100001011100 s'
#3347
0a*
#3406
b110011001011100 c'
1a*
#3410
b1000010001011100100000100101110010000000010111000111111001011100011111000101110001111010010111000111100001011100011101100101110001110100010111000111001001011100011100000101110001101110010111000110110001011100011010100101110001101000010111000110011001011100 s'
#3411
0a*
#3451
0[*
#3453
1[*
#3455
0[*
#3459
1[*
#3461
0[*
#3463
1[*
#3470
b110010001011100 c'
1a*
#3474
b1000001001011100100000000101110001111110010111000111110001011100011110100101110001111000010111000111011001011100011101000101110001110010010111000111000001011100011011100101110001101100010111000110101001011100011010000101110001100110010111000110010001011100 s'
#3475
0a*
#3534
b110001001011100 c'
1a*
#3538
b1000000001011100011111100101110001111100010111000111101001011100011110000101110001110110010111000111010001011100011100100101110001110000010111000110111001011100011011000101110001101010010111000110100001011100011001100101110001100100010111000110001001011100 s'
#3539
0a*
#3598
b110000001011100 c'
1a*
#3602
b111111001011100011111000101110001111010010111000111100001011100011101100101110001110100010111000111001001011100011100000101110001101110010111000110110001011100011010100101110001101000010111000110011001011100011001000101110001100010010111000110000001011100 s'
#3603
0a*
#3651
0[*
#3653
1[*
#3655
0[*
#3659
1[*
#3661
0[*
#3662
b101111001011100 c'
1a*
#3663
1[*
#3666
b111110001011100011110100101110001111000010111000111011001011100011101000101110001110010010111000111000001011100011011100101110001101100010111000110101001011100011010000101110001100110010111000110010001011100011000100101110001100000010111000101111001011100 s'
#3667
0a*
#3726
b101110001011100 c'
1a*
#3730
b111101001011100011110000101110001110110010111000111010001011100011100100101110001110000010111000110111001011100011011000101110001101010010111000110100001011100011001100101110001100100010111000110001001011100011000000101110001011110010111000101110001011100 s'
#3731
0a*
#3790
b101101001011100 c'
1a*
#3794
b111100001011100011101100101110001110100010111000111001001011100011100000101110001101110010111000110110001011100011010100101110001101000010111000110011001011100011001000101110001100010010111000110000001011100010111100101110001011100010111000101101001011100 s'
#3795
0a*
#3851
0[*
#3853
1[*
#3854
b101100001011100 c'
1a*
#3855
0[*
#3858
b111011001011100011101000101110001110010010111000111000001011100011011100101110001101100010111000110101001011100011010000101110001100110010111000110010001011100011000100101110001100000010111000101111001011100010111000101110001011010010111000101100001011100 s'
#3859
1[*
0a*
#3861
0[*
#3863
1[*
#3918
b101011001011100 c'
1a*
#3922
b111010001011100011100100101110001110000010111000110111001011100011011000101110001101010010111000110100001011100011001100101110001100100010111000110001001011100011000000101110001011110010111000101110001011100010110100101110001011000010111000101011001011100 s'
#3923
0a*
#3982
b101010001011100 c'
1a*
#3986
b111001001011100011100000101110001101110010111000110110001011100011010100101110001101000010111000110011001011100011001000101110001100010010111000110000001011100010111100101110001011100010111000101101001011100010110000101110001010110010111000101010001011100 s'
1^*
#3987
0a*
#3990
0^*
#3998
0_*
#3999
b111001001011100011100000101110001101110010111000110110001011100011010100101110001101000010111000110011001011100011001000101110001100010010111000110000001011100010111100101110001011100010111000101101001011100010110000101110001010110010111000101010001011100 U$
1]*
1_*
#4000
b1111111111111111 :
b11111111111111110 Q
0]*
1d*
#4046
b101001001011100 c'
1a*
#4050
b111000001011100011011100101110001101100010111000110101001011100011010000101110001100110010111000110010001011100011000100101110001100000010111000101111001011100010111000101110001011010010111000101100001011100010101100101110001010100010111000101001001011100 s'
#4051
0[*
0a*
#4053
1[*
#4055
0[*
#4059
1[*
#4061
0[*
#4063
1[*
#4110
b101000001011100 c'
1a*
#4114
b110111001011100011011000101110001101010010111000110100001011100011001100101110001100100010111000110001001011100011000000101110001011110010111000101110001011100010110100101110001011000010111000101011001011100010101000101110001010010010111000101000001011100 s'
#4115
0a*
#4174
b100111001011100 c'
1a*
#4178
b110110001011100011010100101110001101000010111000110011001011100011001000101110001100010010111000110000001011100010111100101110001011100010111000101101001011100010110000101110001010110010111000101010001011100010100100101110001010000010111000100111001011100 s'
#4179
0a*
#4238
b100110001011100 c'
1a*
#4242
b110101001011100011010000101110001100110010111000110010001011100011000100101110001100000010111000101111001011100010111000101110001011010010111000101100001011100010101100101110001010100010111000101001001011100010100000101110001001110010111000100110001011100 s'
#4243
0a*
#4251
0[*
#4253
1[*
#4255
0[*
#4259
1[*
#4261
0[*
#4263
1[*
#4302
b100101001011100 c'
1a*
#4306
b110100001011100011001100101110001100100010111000110001001011100011000000101110001011110010111000101110001011100010110100101110001011000010111000101011001011100010101000101110001010010010111000101000001011100010011100101110001001100010111000100101001011100 s'
#4307
0a*
#4366
b100100001011100 c'
1a*
#4370
b110011001011100011001000101110001100010010111000110000001011100010111100101110001011100010111000101101001011100010110000101110001010110010111000101010001011100010100100101110001010000010111000100111001011100010011000101110001001010010111000100100001011100 s'
#4371
0a*
#4430
b100011001011100 c'
1a*
#4434
b110010001011100011000100101110001100000010111000101111001011100010111000101110001011010010111000101100001011100010101100101110001010100010111000101001001011100010100000101110001001110010111000100110001011100010010100101110001001000010111000100011001011100 s'
#4435
0a*
#4451
0[*
#4453
1[*
#4455
0[*
#4459
1[*
#4461
0[*
#4463
1[*
#4494
b100010001011100 c'
1a*
#4498
b110001001011100011000000101110001011110010111000101110001011100010110100101110001011000010111000101011001011100010101000101110001010010010111000101000001011100010011100101110001001100010111000100101001011100010010000101110001000110010111000100010001011100 s'
#4499
0a*
#4558
b100001001011100 c'
1a*
#4562
b110000001011100010111100101110001011100010111000101101001011100010110000101110001010110010111000101010001011100010100100101110001010000010111000100111001011100010011000101110001001010010111000100100001011100010001100101110001000100010111000100001001011100 s'
#4563
0a*
#4614
0[*
#4622
b100000001011100 c'
1a*
#4623
1[*
#4624
0[*
#4626
b101111001011100010111000101110001011010010111000101100001011100010101100101110001010100010111000101001001011100010100000101110001001110010111000100110001011100010010100101110001001000010111000100011001011100010001000101110001000010010111000100000001011100 s'
#4627
0a*
#4683
1[*
#4685
0[*
#4686
b11111001011100 c'
1a*
#4689
1[*
#4690
b101110001011100010110100101110001011000010111000101011001011100010101000101110001010010010111000101000001011100010011100101110001001100010111000100101001011100010010000101110001000110010111000100010001011100010000100101110001000000010111000011111001011100 s'
#4691
0[*
0a*
#4693
1[*
#4750
b11110001011100 c'
1a*
#4754
b101101001011100010110000101110001010110010111000101010001011100010100100101110001010000010111000100111001011100010011000101110001001010010111000100100001011100010001100101110001000100010111000100001001011100010000000101110000111110010111000011110001011100 s'
#4755
0a*
#4814
b11101001011100 c'
1a*
#4818
b101100001011100010101100101110001010100010111000101001001011100010100000101110001001110010111000100110001011100010010100101110001001000010111000100011001011100010001000101110001000010010111000100000001011100001111100101110000111100010111000011101001011100 s'
#4819
0a*
#4878
b11100001011100 c'
1a*
#4882
b101011001011100010101000101110001010010010111000101000001011100010011100101110001001100010111000100101001011100010010000101110001000110010111000100010001011100010000100101110001000000010111000011111001011100001111000101110000111010010111000011100001011100 s'
#4883
0a*
#4891
0[*
#4893
1[*
#4895
0[*
#4899
1[*
#4901
0[*
#4903
1[*
#4942
b11011001011100 c'
1a*
#4946
b101010001011100010100100101110001010000010111000100111001011100010011000101110001001010010111000100100001011100010001100101110001000100010111000100001001011100010000000101110000111110010111000011110001011100001110100101110000111000010111000011011001011100 s'
#4947
0a*
#5006
b11010001011100 c'
1a*
#5010
b101001001011100010100000101110001001110010111000100110001011100010010100101110001001000010111000100011001011100010001000101110001000010010111000100000001011100001111100101110000111100010111000011101001011100001110000101110000110110010111000011010001011100 s'
1^*
#5011
0a*
#5014
0^*
#5022
0_*
#5023
b101001001011100010100000101110001001110010111000100110001011100010010100101110001001000010111000100011001011100010001000101110001000010010111000100000001011100001111100101110000111100010111000011101001011100001110000101110000110110010111000011010001011100 U$
1]*
1_*
#5024
b110 "
b0 :
b100000000000000000 Q
0]*
1b*
#5025
b0 "
b0 Q
0Y*
0b*
0c*
#5026
b1 "
#5027
1l
1Y*
#5028
b10 Q
b1 ;'
#5029
b100 Q
b10 ;'
#5030
b110 Q
b11 ;'
#5031
b1000 Q
b100 ;'
0[*
#5038
1[*
#5039
b1010 Q
b101 ;'
0[*
#5053
1[*
#5054
b1100 Q
b110 ;'
0[*
#5059
1[*
#5060
b1110 Q
b111 ;'
#5061
b10000 Q
b1000 ;'
#5062
b10010 Q
b1001 ;'
#5063
b10100 Q
b1010 ;'
#5064
b10110 Q
b1011 ;'
#5065
b11000 Q
b1100 ;'
#5066
b11010 Q
b1101 ;'
#5067
b11100 Q
b1110 ;'
#5068
b11110 Q
b1111 ;'
#5069
b100000 Q
b10000 ;'
#5070
b100010 Q
b10001 ;'
#5071
b100100 Q
b10010 ;'
#5072
b100110 Q
b10011 ;'
#5073
b101000 Q
b10100 ;'
#5074
b101010 Q
b10101 ;'
#5075
b101100 Q
b10110 ;'
#5076
b101110 Q
b10111 ;'
#5077
b110000 Q
b11000 ;'
#5078
b110010 Q
b110000000000000011000100000000001100100000000000110011000000000011010000000000001101010000000000110110000000000011011100000000001110000000000000111001000000000011101000000000001110110000000000111100000000000011110100000000001111100000000000111111000000000 o
b11001 ;'
1Z*
#5079
b1 %
b110100 Q
b1000000000000000100000100000000010000100000000001000011000000000100010000000000010001010000000001000110000000000100011100000000010010000000000001001001000000000100101000000000010010110000000001001100000000000100110100000000010011100000000001001111000000000 o
b11010 ;'
#5080
b10 %
b110110 Q
b1010000000000000101000100000000010100100000000001010011000000000101010000000000010101010000000001010110000000000101011100000000010110000000000001011001000000000101101000000000010110110000000001011100000000000101110100000000010111100000000001011111000000000 o
b11011 ;'
#5081
b11 %
b111000 Q
b1100000000000000110000100000000011000100000000001100011000000000110010000000000011001010000000001100110000000000110011100000000011010000000000001101001000000000110101000000000011010110000000001101100000000000110110100000000011011100000000001101111000000000 o
b11100 ;'
#5082
b100 %
b111010 Q
b1110000000000000111000100000000011100100000000001110011000000000111010000000000011101010000000001110110000000000111011100000000011110000000000001111001000000000111101000000000011110110000000001111100000000000111110100000000011111100000000001111111000000000 o
b11101 ;'
#5083
b101 %
b111100 Q
b1000000100000000100000100000000010000011000000001000010000000000100001010000000010000110000000001000011100000000100010000000000010001001000000001000101000000000100010110000000010001100000000001000110100000000100011100000000010001111000000001 o
b11110 ;'
#5084
b110 %
b111110 Q
b10000000000001001000100000000100100100000000010010011000000001001010000000000100101010000000010010110000000001001011100000000100110000000000010011001000000001001101000000000100110110000000010011100000000001001110100000000100111100000000010011111000000001 o
b11111 ;'
#5085
b111 %
b1000000 Q
b100000000000001010000100000000101000100000000010100011000000001010010000000000101001010000000010100110000000001010011100000000101010000000000010101001000000001010101000000000101010110000000010101100000000001010110100000000101011100000000010101111000000001 o
b100000 ;'
#5086
b1000 %
b1000010 Q
b110000000000001011000100000000101100100000000010110011000000001011010000000000101101010000000010110110000000001011011100000000101110000000000010111001000000001011101000000000101110110000000010111100000000001011110100000000101111100000000010111111000000001 o
b100001 ;'
#5087
b1001 %
b1000100 Q
b1000000000000001100000100000000110000100000000011000011000000001100010000000000110001010000000011000110000000001100011100000000110010000000000011001001000000001100101000000000110010110000000011001100000000001100110100000000110011100000000011001111000000001 o
b100010 ;'
#5088
b1010 %
b1000110 Q
b1010000000000001101000100000000110100100000000011010011000000001101010000000000110101010000000011010110000000001101011100000000110110000000000011011001000000001101101000000000110110110000000011011100000000001101110100000000110111100000000011011111000000001 o
b100011 ;'
#5089
b1011 %
b1001000 Q
b1100000000000001110000100000000111000100000000011100011000000001110010000000000111001010000000011100110000000001110011100000000111010000000000011101001000000001110101000000000111010110000000011101100000000001110110100000000111011100000000011101111000000001 o
b100100 ;'
#5090
b1100 %
b1001010 Q
b1110000000000001111000100000000111100100000000011110011000000001111010000000000111101010000000011110110000000001111011100000000111110000000000011111001000000001111101000000000111110110000000011111100000000001111110100000000111111100000000011111111000000001 o
b100101 ;'
#5091
b1101 %
b1001100 Q
b10000000100000001000000100000000100000011000000010000010000000001000001010000000100000110000000010000011100000001000010000000000100001001000000010000101000000001000010110000000100001100000000010000110100000001000011100000000100001111000000010 o
b100110 ;'
